<?xml version="1.0" encoding="UTF-8" standalone="no"?>
<svg
   xmlns:dc="http://purl.org/dc/elements/1.1/"
   xmlns:cc="http://creativecommons.org/ns#"
   xmlns:rdf="http://www.w3.org/1999/02/22-rdf-syntax-ns#"
   xmlns:svg="http://www.w3.org/2000/svg"
   xmlns="http://www.w3.org/2000/svg"
   xmlns:xlink="http://www.w3.org/1999/xlink"
   xmlns:sodipodi="http://sodipodi.sourceforge.net/DTD/sodipodi-0.dtd"
   xmlns:inkscape="http://www.inkscape.org/namespaces/inkscape"
   height="10.804616mm"
   width="10.633749mm"
   inkscape:version="1.0.2 (e86c870879, 2021-01-15)"
   version="1.1"
   viewBox="0 0 40.190548 40.836344"
   sodipodi:docname="all-trace-plot-widget-icons.svg"
   id="svg2">
  <sodipodi:namedview
     inkscape:document-rotation="0"
     units="mm"
     inkscape:document-units="px"
     inkscape:pageopacity="0.0"
     inkscape:window-width="1280"
     inkscape:cy="55.460308"
     inkscape:cx="1.8693709"
     inkscape:current-layer="layer1"
     borderopacity="1.0"
     showgrid="false"
     inkscape:window-x="-4"
     inkscape:zoom="2.219726"
     inkscape:window-maximized="1"
     inkscape:window-height="968"
     pagecolor="#ffffff"
     inkscape:window-y="-4"
     inkscape:pageshadow="2"
     bordercolor="#666666"
     id="base"
     fit-margin-top="0"
     fit-margin-left="0"
     fit-margin-right="0"
     fit-margin-bottom="0">
    <inkscape:grid
       empspacing="5"
       type="xygrid"
       snapvisiblegridlinesonly="true"
       visible="true"
       enabled="true"
       id="grid3759"
       originx="-226.40597"
       originy="-136.53325" />
  </sodipodi:namedview>
  <defs
     id="defs4">
    <marker
       inkscape:stockid="Arrow1Mend"
       orient="auto"
       refY="0"
       refX="0"
       id="marker1299"
       style="overflow:visible"
       inkscape:isstock="true">
      <path
         id="path1297"
         d="M 0,0 5,-5 -12.5,0 5,5 Z"
         style="fill:#f7fc00;fill-opacity:1;fill-rule:evenodd;stroke:#f7fc00;stroke-width:1pt;stroke-opacity:1"
         transform="matrix(-0.4,0,0,-0.4,-4,0)" />
    </marker>
    <marker
       inkscape:isstock="true"
       style="overflow:visible"
       id="marker1289"
       refX="0"
       refY="0"
       orient="auto"
       inkscape:stockid="Arrow1Mend">
      <path
         transform="matrix(-0.4,0,0,-0.4,-4,0)"
         style="fill:#f7fc00;fill-opacity:1;fill-rule:evenodd;stroke:#f7fc00;stroke-width:1pt;stroke-opacity:1"
         d="M 0,0 5,-5 -12.5,0 5,5 Z"
         id="path1287" />
    </marker>
    <marker
       inkscape:collect="always"
       inkscape:stockid="Arrow1Mend"
       orient="auto"
       refY="0"
       refX="0"
       id="marker1077"
       style="overflow:visible"
       inkscape:isstock="true">
      <path
         id="path1075"
         d="M 0,0 5,-5 -12.5,0 5,5 Z"
         style="fill:#f7fc00;fill-opacity:1;fill-rule:evenodd;stroke:#f7fc00;stroke-width:1pt;stroke-opacity:1"
         transform="matrix(-0.4,0,0,-0.4,-4,0)" />
    </marker>
    <marker
       inkscape:stockid="Arrow1Mend"
       orient="auto"
       refY="0"
       refX="0"
       id="marker1061"
       style="overflow:visible"
       inkscape:isstock="true">
      <path
         id="path1059"
         d="M 0,0 5,-5 -12.5,0 5,5 Z"
         style="fill:#f7fc00;fill-opacity:1;fill-rule:evenodd;stroke:#f7fc00;stroke-width:1pt;stroke-opacity:1"
         transform="matrix(-0.4,0,0,-0.4,-4,0)" />
    </marker>
    <marker
       inkscape:stockid="Arrow1Mend"
       orient="auto"
       refY="0"
       refX="0"
       id="marker1079"
       style="overflow:visible"
       inkscape:isstock="true">
      <path
         id="path1077"
         d="M 0,0 5,-5 -12.5,0 5,5 Z"
         style="fill:#f7fc00;fill-opacity:1;fill-rule:evenodd;stroke:#f7fc00;stroke-width:1pt;stroke-opacity:1"
         transform="matrix(-0.4,0,0,-0.4,-4,0)" />
    </marker>
    <marker
       inkscape:collect="always"
       inkscape:isstock="true"
       style="overflow:visible"
       id="marker6076"
       refX="0"
       refY="0"
       orient="auto"
       inkscape:stockid="Arrow1Mend">
      <path
         transform="matrix(-0.4,0,0,-0.4,-4,0)"
         style="fill:#f7fc00;fill-opacity:1;fill-rule:evenodd;stroke:#f7fc00;stroke-width:1pt;stroke-opacity:1"
         d="M 0,0 5,-5 -12.5,0 5,5 Z"
         id="path6074" />
    </marker>
    <marker
       inkscape:collect="always"
       inkscape:stockid="Arrow1Mend"
       orient="auto"
       refY="0"
       refX="0"
       id="marker4205"
       style="overflow:visible"
       inkscape:isstock="true">
      <path
         id="path4203"
         d="M 0,0 5,-5 -12.5,0 5,5 Z"
         style="fill:#f7fc00;fill-opacity:1;fill-rule:evenodd;stroke:#f7fc00;stroke-width:1pt;stroke-opacity:1"
         transform="matrix(-0.4,0,0,-0.4,-4,0)" />
    </marker>
    <marker
       inkscape:isstock="true"
       style="overflow:visible"
       id="Arrow1Send"
       refX="0"
       refY="0"
       orient="auto"
       inkscape:stockid="Arrow1Send">
      <path
         transform="matrix(-0.2,0,0,-0.2,-1.2,0)"
         style="fill:#f7fc00;fill-opacity:1;fill-rule:evenodd;stroke:#f7fc00;stroke-width:1pt;stroke-opacity:1"
         d="M 0,0 5,-5 -12.5,0 5,5 Z"
         id="path1940" />
    </marker>
    <marker
       inkscape:isstock="true"
       style="overflow:visible"
       id="marker2188"
       refX="0"
       refY="0"
       orient="auto"
       inkscape:stockid="Arrow1Mend">
      <path
         transform="matrix(-0.4,0,0,-0.4,-4,0)"
         style="fill:#f7fc00;fill-opacity:1;fill-rule:evenodd;stroke:#f7fc00;stroke-width:1pt;stroke-opacity:1"
         d="M 0,0 5,-5 -12.5,0 5,5 Z"
         id="path1934" />
    </marker>
    <marker
       inkscape:stockid="Arrow1Mend"
       orient="auto"
       refY="0"
       refX="0"
       id="marker1700"
       style="overflow:visible"
       inkscape:isstock="true">
      <path
         id="path1698"
         d="M 0,0 5,-5 -12.5,0 5,5 Z"
         style="fill:#f7fc00;fill-opacity:1;fill-rule:evenodd;stroke:#f7fc00;stroke-width:1pt;stroke-opacity:1"
         transform="matrix(-0.4,0,0,-0.4,-4,0)" />
    </marker>
    <marker
       inkscape:collect="always"
       inkscape:isstock="true"
       style="overflow:visible"
       id="marker2590"
       refX="0"
       refY="0"
       orient="auto"
       inkscape:stockid="Arrow1Mend">
      <path
         transform="matrix(-0.4,0,0,-0.4,-4,0)"
         style="fill:#f7fc00;fill-opacity:1;fill-rule:evenodd;stroke:#f7fc00;stroke-width:1pt;stroke-opacity:1"
         d="M 0,0 5,-5 -12.5,0 5,5 Z"
         id="path2588" />
    </marker>
    <marker
       inkscape:collect="always"
       inkscape:stockid="Arrow1Mend"
       orient="auto"
       refY="0"
       refX="0"
       id="marker2212"
       style="overflow:visible"
       inkscape:isstock="true">
      <path
         id="path2210"
         d="M 0,0 5,-5 -12.5,0 5,5 Z"
         style="fill:#f7fc00;fill-opacity:1;fill-rule:evenodd;stroke:#f7fc00;stroke-width:1pt;stroke-opacity:1"
         transform="matrix(-0.4,0,0,-0.4,-4,0)" />
    </marker>
    <marker
       inkscape:collect="always"
       inkscape:isstock="true"
       style="overflow:visible"
       id="Arrow1Mend"
       refX="0"
       refY="0"
       orient="auto"
       inkscape:stockid="Arrow1Mend">
      <path
         transform="matrix(-0.4,0,0,-0.4,-4,0)"
         style="fill:#f7fc00;fill-opacity:1;fill-rule:evenodd;stroke:#f7fc00;stroke-width:1pt;stroke-opacity:1"
         d="M 0,0 5,-5 -12.5,0 5,5 Z"
         id="path939" />
    </marker>
    <linearGradient
       inkscape:collect="always"
       x1="21.367001"
       y1="108.61"
       gradientTransform="matrix(1.4384,1.4384,-1.967,1.967,362.74625,-207.74937)"
       x2="67.179001"
       gradientUnits="userSpaceOnUse"
       y2="112.61"
       id="linearGradient4511">
      <stop
         offset="0"
         style="stop-color:#999999"
         id="stop4507" />
      <stop
         offset=".38633"
         style="stop-color:#e6e6e6"
         id="stop4513" />
      <stop
         offset=".56350"
         style="stop-color:#989898"
         id="stop4517" />
      <stop
         offset=".71704"
         style="stop-color:#333333"
         id="stop4515" />
      <stop
         offset="1"
         style="stop-color:#999999"
         id="stop4509" />
    </linearGradient>
    <linearGradient
       y2="112.61"
       x2="67.179001"
       y1="108.61"
       x1="21.367001"
       gradientTransform="matrix(0.56772294,0.56772294,-0.77635639,0.77635639,214.77098,-93.511657)"
       gradientUnits="userSpaceOnUse"
       id="linearGradient972"
       xlink:href="#linearGradient4511"
       inkscape:collect="always" />
    <linearGradient
       y2="112.61"
       x2="67.179001"
       y1="108.61"
       x1="21.367001"
       gradientTransform="matrix(0.56772294,0.56772294,-0.77635639,0.77635639,143.36318,-20.781014)"
       gradientUnits="userSpaceOnUse"
       id="linearGradient1020"
       xlink:href="#linearGradient4511"
       inkscape:collect="always" />
    <linearGradient
       y2="112.61"
       x2="67.179001"
       y1="108.61"
       x1="21.367001"
       gradientTransform="matrix(0.56772294,0.56772294,-0.77635639,0.77635639,143.36318,-93.511657)"
       gradientUnits="userSpaceOnUse"
       id="linearGradient866"
       xlink:href="#linearGradient4511"
       inkscape:collect="always" />
    <linearGradient
       y2="112.61"
       x2="67.179001"
       y1="108.61"
       x1="21.367001"
       gradientTransform="matrix(0.56772294,0.56772294,-0.77635639,0.77635639,143.36318,-20.781014)"
       gradientUnits="userSpaceOnUse"
       id="linearGradient296"
       xlink:href="#linearGradient4511"
       inkscape:collect="always" />
  </defs>
  <g
     transform="translate(-226.40598,-66.373578)"
     inkscape:groupmode="layer"
     inkscape:label="Layer 1"
     id="layer1">
    <g
       id="g302">
      <path
         id="path4503"
         style="fill:url(#linearGradient866);stroke-width:0.394691"
         inkscape:connector-curvature="0"
         d="M 104.73955,4.2887236 73.105099,43.299944 113.08725,12.829834 Z"
         inkscape:export-xdpi="11.423403"
         inkscape:export-ydpi="11.423403" />
      <ellipse
         id="path2985"
         style="fill:#f80000;fill-opacity:1;fill-rule:evenodd;stroke:#000000;stroke-width:0.410885;stroke-opacity:1"
         transform="rotate(45)"
         inkscape:export-xdpi="11.423403"
         inkscape:export-ydpi="11.423403"
         cx="83.067535"
         cy="-52.375641"
         rx="16.697201"
         ry="8.924366" />
      <path
         id="path4445"
         sodipodi:nodetypes="ccccscscc"
         style="fill:#ff0000;fill-opacity:1;stroke:#000000;stroke-width:0.394691;stroke-opacity:1"
         inkscape:connector-curvature="0"
         d="M 91.097859,14.104684 107.95983,-6.9717964 c 0,0 -1.97598,1.60714 -0.4479,5.6646 0.92212,2.29212996 1.71253,3.92563 4.66327,6.98168 0,0 2.91456,3.07263 6.55739,4.4150104 1.97353,0.72722 4.60762,1.28168 6.08889,-0.1995604 L 103.74422,26.751514 c 0,0 -4.215301,4.2153 -10.538641,-2.10769 -6.32333,-6.32334 -2.10772,-10.53864 -2.10772,-10.53864 z"
         inkscape:export-xdpi="11.423403"
         inkscape:export-ydpi="11.423403" />
      <ellipse
         id="path4481"
         style="fill:#ff0000;fill-opacity:1;fill-rule:evenodd;stroke:#000000;stroke-width:0.33197;stroke-opacity:1"
         transform="rotate(45)"
         inkscape:export-xdpi="11.423403"
         inkscape:export-ydpi="11.423403"
         cx="83.066223"
         cy="-81.587433"
         rx="13.490318"
         ry="7.2103424" />
    </g>
    <g
       id="g308">
      <path
         inkscape:export-ydpi="11.423403"
         inkscape:export-xdpi="11.423403"
         d="M 176.14734,4.2887236 144.51289,43.299944 184.49505,12.829834 Z"
         inkscape:connector-curvature="0"
         style="fill:url(#linearGradient972);stroke-width:0.394691"
         id="path962" />
      <ellipse
         ry="8.924366"
         rx="16.697201"
         cy="-102.86859"
         cx="133.56046"
         inkscape:export-ydpi="11.423403"
         inkscape:export-xdpi="11.423403"
         transform="rotate(45)"
         style="fill:#58d43a;fill-opacity:1;fill-rule:evenodd;stroke:#000000;stroke-width:0.410885;stroke-opacity:1"
         id="ellipse966" />
      <path
         inkscape:export-ydpi="11.423403"
         inkscape:export-xdpi="11.423403"
         d="m 162.50565,14.104684 16.86198,-21.0764804 c 0,0 -1.97598,1.60714 -0.4479,5.6646 0.92212,2.29212996 1.71252,3.92563 4.66327,6.98168 0,0 2.91455,3.07263 6.55739,4.4150104 1.97353,0.72722 4.60762,1.28168 6.08889,-0.1995604 L 175.15201,26.751514 c 0,0 -4.21529,4.2153 -10.53863,-2.10769 -6.32334,-6.32334 -2.10773,-10.53864 -2.10773,-10.53864 z"
         inkscape:connector-curvature="0"
         style="fill:#58d43a;fill-opacity:1;stroke:#000000;stroke-width:0.394691;stroke-opacity:1"
         sodipodi:nodetypes="ccccscscc"
         id="path968" />
      <ellipse
         ry="7.2103424"
         rx="13.490318"
         cy="-132.08037"
         cx="133.55917"
         inkscape:export-ydpi="11.423403"
         inkscape:export-xdpi="11.423403"
         transform="rotate(45)"
         style="fill:#58d43a;fill-opacity:1;fill-rule:evenodd;stroke:#000000;stroke-width:0.33197;stroke-opacity:1"
         id="ellipse970" />
    </g>
    <g
       inkscape:export-ydpi="47.800789"
       inkscape:export-xdpi="47.800789"
       id="g314">
      <path
         id="path976"
         style="fill:#656565;fill-opacity:1;stroke-width:0.394691"
         inkscape:connector-curvature="0"
         d="M 254.61745,4.2887236 222.983,43.299944 262.96516,12.829834 Z"
         inkscape:export-xdpi="11.423403"
         inkscape:export-ydpi="11.423403" />
      <path
         id="ellipse980"
         style="fill:#656565;fill-opacity:1;fill-rule:evenodd;stroke:#000000;stroke-width:0.410885;stroke-opacity:1"
         transform="rotate(45)"
         d="m 205.74441,-158.35533 a 16.697201,8.924366 0 0 1 -16.6972,8.92436 16.697201,8.924366 0 0 1 -16.6972,-8.92436 16.697201,8.924366 0 0 1 16.6972,-8.92437 16.697201,8.924366 0 0 1 16.6972,8.92437 z" />
      <path
         id="path982"
         sodipodi:nodetypes="ccccscscc"
         style="fill:#656565;fill-opacity:1;stroke:#000000;stroke-width:0.394691;stroke-opacity:1"
         inkscape:connector-curvature="0"
         d="m 240.97576,14.104684 16.86197,-21.0764804 c 0,0 -1.97598,1.60714 -0.44789,5.6646 0.92211,2.29212996 1.71252,3.92563 4.66327,6.98168 0,0 2.91455,3.07263 6.55739,4.4150104 1.97353,0.72722 4.60761,1.28168 6.08889,-0.1995604 L 253.62212,26.751514 c 0,0 -4.2153,4.2153 -10.53863,-2.10769 -6.32334,-6.32334 -2.10773,-10.53864 -2.10773,-10.53864 z"
         inkscape:export-xdpi="11.423403"
         inkscape:export-ydpi="11.423403" />
      <path
         id="ellipse984"
         style="fill:#656565;fill-opacity:1;fill-rule:evenodd;stroke:#000000;stroke-width:0.33197;stroke-opacity:1"
         transform="rotate(45)"
         d="m 202.53622,-187.56711 a 13.490318,7.2103424 0 0 1 -13.49032,7.21034 13.490318,7.2103424 0 0 1 -13.49032,-7.21034 13.490318,7.2103424 0 0 1 13.49032,-7.21034 13.490318,7.2103424 0 0 1 13.49032,7.21034 z" />
    </g>
    <g
       id="g320">
      <path
         inkscape:export-ydpi="11.423403"
         inkscape:export-xdpi="11.423403"
         d="M 104.73955,77.019372 82.361586,106.55312 113.08725,85.560472 Z"
         inkscape:connector-curvature="0"
         style="fill:url(#linearGradient1020);stroke-width:0.394691"
         id="path990"
         sodipodi:nodetypes="cccc" />
      <ellipse
         ry="15.027907"
         rx="16.697201"
         cy="-5.8176765"
         cx="134.68176"
         inkscape:export-ydpi="11.423403"
         inkscape:export-xdpi="11.423403"
         transform="rotate(45)"
         style="fill:#f80000;fill-opacity:1;fill-rule:evenodd;stroke:#000000;stroke-width:0.410885;stroke-opacity:1"
         id="ellipse994" />
      <path
         inkscape:export-ydpi="11.423403"
         inkscape:export-xdpi="11.423403"
         d="m 92.293759,85.534272 9.711341,-14.7671 c 0,0 -1.97598,1.60714 -0.4479,5.6646 0.92212,2.29213 1.71252,3.92563 4.66327,6.98168 0,0 2.91455,3.07263 6.55739,4.41501 1.97353,0.72722 4.60762,1.28168 6.08889,-0.19956 l -13.92663,10.5522 c 0,0 -4.2153,4.215298 -10.538641,-2.10769 -6.32333,-6.32334 -2.10772,-10.53863 -2.10772,-10.53863 z"
         inkscape:connector-curvature="0"
         style="fill:#ff0000;fill-opacity:1;stroke:#000000;stroke-width:0.394691;stroke-opacity:1"
         sodipodi:nodetypes="ccccscsccc"
         id="path996" />
      <ellipse
         ry="12.736216"
         rx="13.490318"
         cy="-20.938147"
         cx="133.59065"
         inkscape:export-ydpi="11.423403"
         inkscape:export-xdpi="11.423403"
         transform="rotate(45)"
         style="fill:#ff0000;fill-opacity:1;fill-rule:evenodd;stroke:#000000;stroke-width:0.33197;stroke-opacity:1"
         id="ellipse998" />
    </g>
    <rect
       inkscape:export-ydpi="47.800789"
       inkscape:export-xdpi="47.800789"
       y="131.70947"
       x="76.380867"
       height="32"
       width="32"
       id="rect882"
       style="opacity:1;fill:#ffffff;fill-opacity:0;fill-rule:nonzero;stroke:#000000;stroke-width:0.133333;stroke-linecap:round;stroke-linejoin:round;stroke-miterlimit:4;stroke-dasharray:none;stroke-dashoffset:0;stroke-opacity:1;paint-order:markers stroke fill" />
    <path
       inkscape:export-ydpi="47.800789"
       inkscape:export-xdpi="47.800789"
       sodipodi:nodetypes="cc"
       inkscape:connector-curvature="0"
       id="path886"
       d="m 80.376283,135.70488 24.009167,24.0092"
       style="fill:none;fill-rule:evenodd;stroke:#ff0606;stroke-width:4;stroke-linecap:butt;stroke-linejoin:miter;stroke-miterlimit:4;stroke-dasharray:none;stroke-opacity:1" />
    <path
       inkscape:export-ydpi="47.800789"
       inkscape:export-xdpi="47.800789"
       style="fill:none;fill-rule:evenodd;stroke:#ff0606;stroke-width:4;stroke-linecap:butt;stroke-linejoin:miter;stroke-miterlimit:4;stroke-dasharray:none;stroke-opacity:1"
       d="M 104.38546,135.70489 80.376269,159.71407"
       id="path888"
       inkscape:connector-curvature="0"
       sodipodi:nodetypes="cc" />
    <g
       id="g1605">
      <rect
         style="opacity:1;fill:#000000;fill-opacity:1;fill-rule:nonzero;stroke:#ffce00;stroke-width:0.133333;stroke-linecap:round;stroke-linejoin:round;stroke-miterlimit:4;stroke-dasharray:none;stroke-dashoffset:0;stroke-opacity:1;paint-order:markers stroke fill"
         id="rect902"
         width="32"
         height="32"
         x="75.654556"
         y="170.3494"
         inkscape:export-xdpi="95.601578"
         inkscape:export-ydpi="95.601578" />
      <text
         xml:space="preserve"
         style="font-style:normal;font-weight:normal;font-size:21.681px;line-height:13.5507px;font-family:'Bitstream Vera Sans';letter-spacing:0px;word-spacing:0px;fill:#faff00;fill-opacity:0.986607;stroke:#f7fc00;stroke-width:0.542026px;stroke-linecap:butt;stroke-linejoin:miter;stroke-opacity:1"
         x="74.280792"
         y="200.69702"
         id="text914"
         inkscape:export-xdpi="95.601578"
         inkscape:export-ydpi="95.601578"><tspan
           sodipodi:role="line"
           id="tspan912"
           x="74.280792"
           y="200.69702"
           style="fill:#faff00;fill-opacity:0.986607;stroke:#f7fc00;stroke-width:0.542026px;stroke-opacity:1">MZ</tspan></text>
      <path
         style="fill:#f7fc00;fill-opacity:1;fill-rule:evenodd;stroke:#f7fc00;stroke-width:2;stroke-linecap:butt;stroke-linejoin:miter;stroke-miterlimit:4;stroke-dasharray:none;stroke-opacity:1;marker-end:url(#Arrow1Mend)"
         d="M 76.553536,177.58697 H 102.84611"
         id="path928"
         inkscape:connector-curvature="0"
         inkscape:export-xdpi="95.601578"
         inkscape:export-ydpi="95.601578" />
    </g>
    <g
       inkscape:export-ydpi="95.601578"
       inkscape:export-xdpi="95.601578"
       id="g1617">
      <rect
         inkscape:export-ydpi="47.800789"
         inkscape:export-xdpi="47.800789"
         y="170.3494"
         x="112.69659"
         height="32"
         width="32"
         id="rect916"
         style="opacity:1;fill:#000000;fill-opacity:1;fill-rule:nonzero;stroke:#ffce00;stroke-width:0.133333;stroke-linecap:round;stroke-linejoin:round;stroke-miterlimit:4;stroke-dasharray:none;stroke-dashoffset:0;stroke-opacity:1;paint-order:markers stroke fill" />
      <text
         id="text920"
         y="200.69702"
         x="112.63018"
         style="font-style:normal;font-weight:normal;font-size:21.681px;line-height:13.5507px;font-family:'Bitstream Vera Sans';letter-spacing:0px;word-spacing:0px;fill:#f7fc00;fill-opacity:1;stroke:#f7fc00;stroke-width:0.542026px;stroke-linecap:butt;stroke-linejoin:miter;stroke-opacity:1"
         xml:space="preserve"
         inkscape:export-xdpi="47.800789"
         inkscape:export-ydpi="47.800789"><tspan
           style="fill:#f7fc00;fill-opacity:1;stroke:#f7fc00;stroke-width:0.542026px;stroke-opacity:1"
           y="200.69702"
           x="112.63018"
           id="tspan918"
           sodipodi:role="line">DT</tspan></text>
      <path
         inkscape:connector-curvature="0"
         id="path2208"
         d="m 113.4503,177.58697 h 26.29258"
         style="fill:#f7fc00;fill-opacity:1;fill-rule:evenodd;stroke:#f7fc00;stroke-width:2;stroke-linecap:butt;stroke-linejoin:miter;stroke-miterlimit:4;stroke-dasharray:none;stroke-opacity:1;marker-end:url(#marker2212)"
         inkscape:export-xdpi="47.800789"
         inkscape:export-ydpi="47.800789" />
    </g>
    <g
       id="g1749">
      <rect
         style="opacity:1;fill:#000000;fill-opacity:1;fill-rule:nonzero;stroke:#fff0b0;stroke-width:0.133333;stroke-linecap:round;stroke-linejoin:round;stroke-miterlimit:4;stroke-dasharray:none;stroke-dashoffset:0;stroke-opacity:1;paint-order:markers stroke fill"
         id="rect922"
         width="32"
         height="32"
         x="150.14073"
         y="170.3494"
         inkscape:export-xdpi="95.601578"
         inkscape:export-ydpi="95.601578" />
      <text
         xml:space="preserve"
         style="font-style:normal;font-weight:normal;font-size:21.681px;line-height:13.5507px;font-family:'Bitstream Vera Sans';letter-spacing:0px;word-spacing:0px;fill:#f7fc00;fill-opacity:1;stroke:#f7fc00;stroke-width:0.542026px;stroke-linecap:butt;stroke-linejoin:miter;stroke-opacity:1"
         x="151.52696"
         y="200.69702"
         id="text926"
         inkscape:export-xdpi="95.601578"
         inkscape:export-ydpi="95.601578"><tspan
           sodipodi:role="line"
           id="tspan924"
           x="151.52696"
           y="200.69702"
           style="fill:#f7fc00;fill-opacity:1;stroke:#f7fc00;stroke-width:0.542026px;stroke-opacity:1">RT</tspan></text>
      <path
         style="fill:#f7fc00;fill-opacity:1;fill-rule:evenodd;stroke:#f7fc00;stroke-width:2;stroke-linecap:butt;stroke-linejoin:miter;stroke-miterlimit:4;stroke-dasharray:none;stroke-opacity:1;marker-end:url(#marker2590)"
         d="m 150.89444,177.58697 h 26.29258"
         id="path2586"
         inkscape:connector-curvature="0"
         inkscape:export-xdpi="95.601578"
         inkscape:export-ydpi="95.601578" />
    </g>
    <g
       style="fill:#58d43a;fill-opacity:1"
       transform="translate(63.448125)"
       id="g282">
      <path
         sodipodi:nodetypes="cccc"
         id="path270"
         style="fill:#6e6e6e;fill-opacity:1;stroke-width:0.394691"
         inkscape:connector-curvature="0"
         d="M 104.73955,77.019372 82.361586,106.55312 113.08725,85.560472 Z"
         inkscape:export-xdpi="11.423403"
         inkscape:export-ydpi="11.423403" />
      <ellipse
         id="ellipse272"
         style="fill:#58d43a;fill-opacity:1;fill-rule:evenodd;stroke:#000000;stroke-width:0.410885;stroke-opacity:1"
         transform="rotate(45)"
         inkscape:export-xdpi="11.423403"
         inkscape:export-ydpi="11.423403"
         cx="134.68176"
         cy="-5.8176765"
         rx="16.697201"
         ry="15.027907" />
      <path
         id="path274"
         sodipodi:nodetypes="ccccscsccc"
         style="fill:#58d43a;fill-opacity:1;stroke:#000000;stroke-width:0.394691;stroke-opacity:1"
         inkscape:connector-curvature="0"
         d="m 92.293759,85.534272 9.711341,-14.7671 c 0,0 -1.97598,1.60714 -0.4479,5.6646 0.92212,2.29213 1.71252,3.92563 4.66327,6.98168 0,0 2.91455,3.07263 6.55739,4.41501 1.97353,0.72722 4.60762,1.28168 6.08889,-0.19956 l -13.92663,10.5522 c 0,0 -4.2153,4.215298 -10.538641,-2.10769 -6.32333,-6.32334 -2.10772,-10.53863 -2.10772,-10.53863 z"
         inkscape:export-xdpi="11.423403"
         inkscape:export-ydpi="11.423403" />
      <ellipse
         id="ellipse276"
         style="fill:#58d43a;fill-opacity:1;fill-rule:evenodd;stroke:#000000;stroke-width:0.33197;stroke-opacity:1"
         transform="rotate(45)"
         inkscape:export-xdpi="11.423403"
         inkscape:export-ydpi="11.423403"
         cx="133.59065"
         cy="-20.938147"
         rx="13.490318"
         ry="12.736216" />
    </g>
    <g
       inkscape:export-ydpi="47.800789"
       inkscape:export-xdpi="47.800789"
       id="g294"
       transform="translate(144.04439)">
      <path
         inkscape:export-ydpi="11.423403"
         inkscape:export-xdpi="11.423403"
         d="M 104.73955,77.019372 82.361586,106.55312 113.08725,85.560472 Z"
         inkscape:connector-curvature="0"
         style="fill:url(#linearGradient296);stroke-width:0.394691"
         id="path286"
         sodipodi:nodetypes="cccc" />
      <ellipse
         ry="15.027907"
         rx="16.697201"
         cy="-5.8176765"
         cx="134.68176"
         inkscape:export-ydpi="11.423403"
         inkscape:export-xdpi="11.423403"
         transform="rotate(45)"
         style="fill:#656565;fill-opacity:1;fill-rule:evenodd;stroke:#000000;stroke-width:0.410885;stroke-opacity:1"
         id="ellipse288" />
      <path
         inkscape:export-ydpi="11.423403"
         inkscape:export-xdpi="11.423403"
         d="m 92.293759,85.534272 9.711341,-14.7671 c 0,0 -1.97598,1.60714 -0.4479,5.6646 0.92212,2.29213 1.71252,3.92563 4.66327,6.98168 0,0 2.91455,3.07263 6.55739,4.41501 1.97353,0.72722 4.60762,1.28168 6.08889,-0.19956 l -13.92663,10.5522 c 0,0 -4.2153,4.215298 -10.538641,-2.10769 -6.32333,-6.32334 -2.10772,-10.53863 -2.10772,-10.53863 z"
         inkscape:connector-curvature="0"
         style="fill:#656565;fill-opacity:1;stroke:#000000;stroke-width:0.394691;stroke-opacity:1"
         sodipodi:nodetypes="ccccscsccc"
         id="path290" />
      <ellipse
         ry="12.736216"
         rx="13.490318"
         cy="-20.938147"
         cx="133.59065"
         inkscape:export-ydpi="11.423403"
         inkscape:export-xdpi="11.423403"
         transform="rotate(45)"
         style="fill:#656565;fill-opacity:1;fill-rule:evenodd;stroke:#000000;stroke-width:0.33197;stroke-opacity:1"
         id="ellipse292" />
    </g>
    <g
       id="g1203">
      <rect
         style="fill:#ffffff;fill-opacity:0;fill-rule:nonzero;stroke:#000000;stroke-width:0.133333;stroke-linecap:round;stroke-linejoin:round;stroke-miterlimit:4;stroke-dasharray:none;stroke-dashoffset:0;stroke-opacity:1;paint-order:markers stroke fill"
         id="rect882-6"
         width="32"
         height="32"
         x="76.112343"
         y="231.66325"
         inkscape:export-xdpi="47.800789"
         inkscape:export-ydpi="47.800789" />
      <path
         style="fill:none;fill-rule:evenodd;stroke:#ff0606;stroke-width:2;stroke-linecap:butt;stroke-linejoin:miter;stroke-miterlimit:4;stroke-dasharray:none;stroke-opacity:1"
         d="m 79.38552,261.98672 3.00114,-24.07044 3.00115,24.07044 h 3.00115 l 3.00114,-19.1759 3.00114,19.1759 h 3.00115 l 3.00114,-12.73923 3.00115,13.49415"
         id="path886-1"
         inkscape:connector-curvature="0"
         sodipodi:nodetypes="ccccccccc"
         inkscape:export-xdpi="47.800789"
         inkscape:export-ydpi="47.800789" />
      <g
         id="g1368"
         transform="matrix(1.38993,0,0,1.38993,-216.83926,-92.229505)">
        <rect
           transform="rotate(38.975327)"
           y="43.17791"
           x="322.55121"
           height="5.3103428"
           width="10.931095"
           id="rect1186"
           style="opacity:1;fill:#000000;fill-opacity:1;fill-rule:nonzero;stroke:#000000;stroke-width:0.663146;stroke-linecap:round;stroke-linejoin:miter;stroke-miterlimit:1.5;stroke-dasharray:none;stroke-dashoffset:0;stroke-opacity:0.995536;paint-order:markers stroke fill" />
        <rect
           transform="rotate(39.034993)"
           y="36.186508"
           x="327.43475"
           height="6.3137507"
           width="1.244965"
           id="rect1188"
           style="opacity:1;fill:#000000;fill-opacity:1;fill-rule:nonzero;stroke:#000000;stroke-width:0.663146;stroke-linecap:round;stroke-linejoin:miter;stroke-miterlimit:1;stroke-dasharray:none;stroke-dashoffset:0;stroke-opacity:0.995536;paint-order:markers stroke fill" />
        <path
           inkscape:connector-curvature="0"
           id="path1190"
           d="m 220.39179,241.10948 -3.13264,3.83989"
           style="fill:none;fill-rule:evenodd;stroke:#000000;stroke-width:1.5;stroke-linecap:butt;stroke-linejoin:miter;stroke-miterlimit:4;stroke-dasharray:none;stroke-opacity:1" />
        <path
           style="fill:none;fill-rule:evenodd;stroke:#000000;stroke-width:1.5;stroke-linecap:butt;stroke-linejoin:miter;stroke-miterlimit:4;stroke-dasharray:none;stroke-opacity:1"
           d="m 223.00923,242.84283 -3.13264,3.83988"
           id="path1196"
           inkscape:connector-curvature="0" />
        <path
           inkscape:connector-curvature="0"
           id="path1202"
           d="m 225.62668,245.17649 -3.13265,3.83988"
           style="fill:none;fill-rule:evenodd;stroke:#000000;stroke-width:1.5;stroke-linecap:butt;stroke-linejoin:miter;stroke-miterlimit:4;stroke-dasharray:none;stroke-opacity:1" />
        <path
           style="fill:none;fill-rule:evenodd;stroke:#000000;stroke-width:1.5;stroke-linecap:butt;stroke-linejoin:miter;stroke-miterlimit:4;stroke-dasharray:none;stroke-opacity:1"
           d="m 228.24412,247.41006 -3.13264,3.83989"
           id="path1208"
           inkscape:connector-curvature="0" />
      </g>
    </g>
    <g
       inkscape:export-ydpi="95.601578"
       inkscape:export-xdpi="95.601578"
       transform="translate(-16.284287)"
       id="g1389">
      <path
         inkscape:export-ydpi="47.800789"
         inkscape:export-xdpi="47.800789"
         sodipodi:nodetypes="ccccccccc"
         inkscape:connector-curvature="0"
         id="path1264"
         d="m 253.72796,246.00492 3.03312,-10.1312 3.03314,10.1312 h 3.03313 l 3.03313,-8.0711 3.03313,8.0711 h 3.03313 l 3.03313,-5.36191 3.03314,5.8443"
         style="fill:none;fill-rule:evenodd;stroke:#0b00ff;stroke-width:2;stroke-linecap:butt;stroke-linejoin:miter;stroke-miterlimit:4;stroke-dasharray:none;stroke-opacity:1" />
      <rect
         inkscape:export-ydpi="47.800789"
         inkscape:export-xdpi="47.800789"
         y="231.66325"
         x="249.38628"
         height="32"
         width="32"
         id="rect1325"
         style="opacity:1;fill:#ffffff;fill-opacity:0;fill-rule:nonzero;stroke:#000000;stroke-width:0.133333;stroke-linecap:round;stroke-linejoin:round;stroke-miterlimit:4;stroke-dasharray:none;stroke-dashoffset:0;stroke-opacity:1;paint-order:markers stroke fill" />
      <rect
         style="opacity:1;fill:#ffffff;fill-opacity:0;fill-rule:nonzero;stroke:#000000;stroke-width:0.491826;stroke-linecap:round;stroke-linejoin:round;stroke-miterlimit:4;stroke-dasharray:none;stroke-dashoffset:0;stroke-opacity:1;paint-order:markers stroke fill"
         id="rect1337"
         width="32"
         height="15.781982"
         x="249.67589"
         y="247.64938"
         inkscape:export-xdpi="47.800789"
         inkscape:export-ydpi="47.800789" />
      <rect
         inkscape:export-ydpi="47.800789"
         inkscape:export-xdpi="47.800789"
         y="231.89516"
         x="249.67589"
         height="15.754231"
         width="32"
         id="rect1339"
         style="opacity:1;fill:#ffffff;fill-opacity:0;fill-rule:nonzero;stroke:#000000;stroke-width:0.491826;stroke-linecap:round;stroke-linejoin:round;stroke-miterlimit:4;stroke-dasharray:none;stroke-dashoffset:0;stroke-opacity:1;paint-order:markers stroke fill" />
      <path
         style="fill:none;fill-rule:evenodd;stroke:#ff0606;stroke-width:2;stroke-linecap:butt;stroke-linejoin:miter;stroke-miterlimit:4;stroke-dasharray:none;stroke-opacity:1"
         d="m 253.72796,261.92861 3.03312,-10.1312 3.03314,10.1312 h 3.03313 l 3.03313,-8.0711 3.03313,8.0711 h 3.03313 l 3.03313,-5.36191 2.94543,5.93201"
         id="path1341"
         inkscape:connector-curvature="0"
         sodipodi:nodetypes="ccccccccc"
         inkscape:export-xdpi="47.800789"
         inkscape:export-ydpi="47.800789" />
    </g>
    <g
       id="g1281">
      <rect
         style="fill:#ffffff;fill-opacity:0;fill-rule:nonzero;stroke:#000000;stroke-width:0.133333;stroke-linecap:round;stroke-linejoin:round;stroke-miterlimit:4;stroke-dasharray:none;stroke-dashoffset:0;stroke-opacity:1;paint-order:markers stroke fill"
         id="rect1258"
         width="32"
         height="32"
         x="193.55617"
         y="231.66325"
         inkscape:export-xdpi="47.800789"
         inkscape:export-ydpi="47.800789" />
      <path
         style="fill:none;fill-rule:evenodd;stroke:#ff0606;stroke-width:2;stroke-linecap:butt;stroke-linejoin:miter;stroke-miterlimit:4;stroke-dasharray:none;stroke-opacity:1"
         d="m 200.20592,261.98672 3.00114,-24.07044 3.00115,24.07044 h 3.00115 l 3.00114,-19.1759 3.00114,19.1759 h 3.00115 l 3.00114,-12.73923 3.00115,12.73923"
         id="path1260"
         inkscape:connector-curvature="0"
         sodipodi:nodetypes="ccccccccc"
         inkscape:export-xdpi="47.800789"
         inkscape:export-ydpi="47.800789" />
      <g
         id="g1272"
         transform="translate(-127.53228,-0.5604921)"
         inkscape:export-xdpi="47.800789"
         inkscape:export-ydpi="47.800789">
        <path
           inkscape:connector-curvature="0"
           id="path1266"
           d="m 344.60628,234.62796 v 12.77598"
           style="fill:none;fill-rule:evenodd;stroke:#000000;stroke-width:3;stroke-linecap:butt;stroke-linejoin:miter;stroke-miterlimit:4;stroke-dasharray:none;stroke-opacity:1" />
        <path
           style="fill:none;fill-rule:evenodd;stroke:#000000;stroke-width:3;stroke-linecap:butt;stroke-linejoin:miter;stroke-miterlimit:4;stroke-dasharray:none;stroke-opacity:1"
           d="M 350.99427,241.01595 H 338.21829"
           id="path1268"
           inkscape:connector-curvature="0" />
      </g>
      <path
         inkscape:export-ydpi="47.800789"
         inkscape:export-xdpi="47.800789"
         sodipodi:nodetypes="ccccccccc"
         inkscape:connector-curvature="0"
         id="path1343"
         d="m 195.74212,261.98672 3.00114,-24.07044 3.00115,24.07044 h 3.00115 l 3.00114,-19.1759 3.00114,19.1759 h 3.00115 l 3.00114,-12.73923 3.00115,12.73923"
         style="fill:none;fill-rule:evenodd;stroke:#0b00ff;stroke-width:2;stroke-linecap:butt;stroke-linejoin:miter;stroke-miterlimit:4;stroke-dasharray:none;stroke-opacity:1" />
    </g>
    <g
       inkscape:export-ydpi="95.601601"
       inkscape:export-xdpi="95.601601"
       id="g2113">
      <rect
         inkscape:export-ydpi="95.601578"
         inkscape:export-xdpi="95.601578"
         y="170.3494"
         x="187.35179"
         height="32"
         width="32"
         id="rect1684"
         style="opacity:1;fill:#000000;fill-opacity:1;fill-rule:nonzero;stroke:#fff0b0;stroke-width:0.133333;stroke-linecap:round;stroke-linejoin:round;stroke-miterlimit:4;stroke-dasharray:none;stroke-dashoffset:0;stroke-opacity:1;paint-order:markers stroke fill" />
      <ellipse
         style="opacity:1;fill:#000000;fill-opacity:1;fill-rule:nonzero;stroke:#f7fc00;stroke-width:4;stroke-linecap:round;stroke-linejoin:bevel;stroke-miterlimit:4;stroke-dasharray:none;stroke-dashoffset:0;stroke-opacity:1;paint-order:markers stroke fill"
         id="path2056"
         cx="202.35321"
         cy="184.696"
         rx="8.8239269"
         ry="8.8902721" />
      <path
         style="fill:none;fill-rule:evenodd;stroke:#f7fc00;stroke-width:4.5;stroke-linecap:butt;stroke-linejoin:miter;stroke-miterlimit:4;stroke-dasharray:none;stroke-opacity:1"
         d="m 208.26286,191.86091 6.89007,8.49293"
         id="path2088"
         inkscape:connector-curvature="0" />
      <path
         id="path1268-6"
         style="fill:none;fill-rule:evenodd;stroke:#f7fc00;stroke-width:3;stroke-linecap:butt;stroke-linejoin:miter;stroke-miterlimit:4;stroke-dasharray:none;stroke-opacity:1"
         d="m 208.7412,184.696 h -12.77598 m 6.38799,-6.38799 v 12.77598"
         inkscape:connector-curvature="0" />
    </g>
    <g
       inkscape:export-ydpi="95.601578"
       inkscape:export-xdpi="95.601578"
       id="g1831">
      <rect
         style="opacity:1;fill:#000000;fill-opacity:1;fill-rule:nonzero;stroke:#fff0b0;stroke-width:0.133333;stroke-linecap:round;stroke-linejoin:round;stroke-miterlimit:4;stroke-dasharray:none;stroke-dashoffset:0;stroke-opacity:1;paint-order:markers stroke fill"
         id="rect932"
         width="32"
         height="32"
         x="225.66956"
         y="170.3494"
         inkscape:export-xdpi="95.601578"
         inkscape:export-ydpi="95.601578" />
      <path
         style="fill:none;fill-rule:evenodd;stroke:#f7fc00;stroke-width:2;stroke-linecap:butt;stroke-linejoin:miter;stroke-miterlimit:4;stroke-dasharray:none;stroke-opacity:1"
         d="m 228.57724,187.88014 1.85139,-15.25361 1.79342,14.38396 h 4.17048 l 1.79341,-11.4591 1.79342,12.27078"
         id="path952"
         inkscape:connector-curvature="0"
         sodipodi:nodetypes="cccccc"
         inkscape:export-xdpi="95.601578"
         inkscape:export-ydpi="95.601578" />
      <path
         inkscape:export-ydpi="95.601578"
         inkscape:export-xdpi="95.601578"
         inkscape:connector-curvature="0"
         id="path2586-7"
         d="m 241.50106,175.87084 h 7.65592 v 9.50413"
         style="fill:none;fill-opacity:1;fill-rule:evenodd;stroke:#f7fc00;stroke-width:2;stroke-linecap:butt;stroke-linejoin:miter;stroke-miterlimit:4;stroke-dasharray:none;stroke-opacity:1;marker-end:url(#Arrow1Send)"
         sodipodi:nodetypes="ccc" />
      <path
         inkscape:export-ydpi="95.601578"
         inkscape:export-xdpi="95.601578"
         sodipodi:nodetypes="cccccc"
         inkscape:connector-curvature="0"
         id="path2194"
         d="m 243.24537,200.2292 1.85139,-15.25361 1.79342,14.38396 h 4.17048 l 1.79341,-11.4591 1.79342,12.27078"
         style="fill:none;fill-rule:evenodd;stroke:#f7fc00;stroke-width:2;stroke-linecap:butt;stroke-linejoin:miter;stroke-miterlimit:4;stroke-dasharray:none;stroke-opacity:1" />
    </g>
    <g
       inkscape:export-ydpi="95.599998"
       inkscape:export-xdpi="95.599998"
       id="g6259">
      <rect
         inkscape:export-ydpi="95.599998"
         inkscape:export-xdpi="95.599998"
         y="170.3494"
         x="262.63846"
         height="32"
         width="32"
         id="rect1005"
         style="opacity:1;fill:#000000;fill-opacity:1;fill-rule:nonzero;stroke:#ffce00;stroke-width:0.133333;stroke-linecap:round;stroke-linejoin:round;stroke-miterlimit:4;stroke-dasharray:none;stroke-dashoffset:0;stroke-opacity:1;paint-order:markers stroke fill" />
      <text
         inkscape:export-ydpi="95.599998"
         inkscape:export-xdpi="95.599998"
         id="text1009"
         y="182.41632"
         x="270.93271"
         style="font-style:normal;font-weight:normal;font-size:14.5888px;line-height:9.11799px;font-family:'Bitstream Vera Sans';letter-spacing:0px;word-spacing:0px;fill:#faff00;fill-opacity:0.986607;stroke:#f7fc00;stroke-width:0.36472px;stroke-linecap:butt;stroke-linejoin:miter;stroke-opacity:1"
         xml:space="preserve"><tspan
           style="fill:#faff00;fill-opacity:0.986607;stroke:#f7fc00;stroke-width:0.36472px;stroke-opacity:1"
           y="182.41632"
           x="270.93271"
           id="tspan1007"
           sodipodi:role="line">MZ</tspan></text>
      <path
         inkscape:export-ydpi="95.599998"
         inkscape:export-xdpi="95.599998"
         inkscape:connector-curvature="0"
         id="path1011"
         d="m 266.01932,198.37202 h 25.31754"
         style="fill:#f7fc00;fill-opacity:1;fill-rule:evenodd;stroke:#f7fc00;stroke-width:1.5;stroke-linecap:butt;stroke-linejoin:miter;stroke-miterlimit:4;stroke-dasharray:none;stroke-opacity:1;marker-end:url(#marker1061)"
         sodipodi:nodetypes="cc" />
      <text
         inkscape:export-ydpi="95.599998"
         inkscape:export-xdpi="95.599998"
         xml:space="preserve"
         style="font-style:normal;font-weight:normal;font-size:14.5888px;line-height:9.11799px;font-family:'Bitstream Vera Sans';letter-spacing:0px;word-spacing:0px;fill:#f7fc00;fill-opacity:1;stroke:#f7fc00;stroke-width:0.36472px;stroke-linecap:butt;stroke-linejoin:miter;stroke-opacity:1"
         x="270.96863"
         y="194.35873"
         id="text1019"><tspan
           sodipodi:role="line"
           id="tspan1017"
           x="270.96863"
           y="194.35873"
           style="fill:#f7fc00;fill-opacity:1;stroke:#f7fc00;stroke-width:0.36472px;stroke-opacity:1">DT</tspan></text>
      <path
         inkscape:export-ydpi="95.599998"
         inkscape:export-xdpi="95.599998"
         style="fill:#f7fc00;fill-opacity:1;fill-rule:evenodd;stroke:#f7fc00;stroke-width:1.5;stroke-linecap:butt;stroke-linejoin:miter;stroke-miterlimit:4;stroke-dasharray:none;stroke-opacity:1;marker-end:url(#marker4205)"
         d="M 266.69886,198.91449 V 173.8662"
         id="path1021"
         inkscape:connector-curvature="0"
         sodipodi:nodetypes="cc" />
    </g>
    <g
       inkscape:export-ydpi="95.599998"
       inkscape:export-xdpi="95.599998"
       id="g6274">
      <rect
         style="opacity:1;fill:#000000;fill-opacity:1;fill-rule:nonzero;stroke:#ffce00;stroke-width:0.133333;stroke-linecap:round;stroke-linejoin:round;stroke-miterlimit:4;stroke-dasharray:none;stroke-dashoffset:0;stroke-opacity:1;paint-order:markers stroke fill"
         id="rect6060"
         width="32"
         height="32"
         x="299.34637"
         y="170.3494"
         inkscape:export-xdpi="95.599998"
         inkscape:export-ydpi="95.599998" />
      <text
         xml:space="preserve"
         style="font-style:normal;font-weight:normal;font-size:14.5888px;line-height:9.11799px;font-family:'Bitstream Vera Sans';letter-spacing:0px;word-spacing:0px;fill:#faff00;fill-opacity:0.986607;stroke:#f7fc00;stroke-width:0.36472px;stroke-linecap:butt;stroke-linejoin:miter;stroke-opacity:1"
         x="307.64062"
         y="182.41632"
         id="text6064"
         inkscape:export-xdpi="95.599998"
         inkscape:export-ydpi="95.599998"><tspan
           sodipodi:role="line"
           id="tspan6062"
           x="307.64062"
           y="182.41632"
           style="fill:#faff00;fill-opacity:0.986607;stroke:#f7fc00;stroke-width:0.36472px;stroke-opacity:1">MZ</tspan></text>
      <path
         sodipodi:nodetypes="cc"
         style="fill:#f7fc00;fill-opacity:1;fill-rule:evenodd;stroke:#f7fc00;stroke-width:1.5;stroke-linecap:butt;stroke-linejoin:miter;stroke-miterlimit:4;stroke-dasharray:none;stroke-opacity:1;marker-end:url(#marker1077)"
         d="m 302.72723,198.37202 h 25.31754"
         id="path6066"
         inkscape:connector-curvature="0"
         inkscape:export-xdpi="95.599998"
         inkscape:export-ydpi="95.599998" />
      <text
         id="text6070"
         y="194.35873"
         x="307.67654"
         style="font-style:normal;font-weight:normal;font-size:14.5888px;line-height:9.11799px;font-family:'Bitstream Vera Sans';letter-spacing:0px;word-spacing:0px;fill:#f7fc00;fill-opacity:1;stroke:#f7fc00;stroke-width:0.36472px;stroke-linecap:butt;stroke-linejoin:miter;stroke-opacity:1"
         xml:space="preserve"
         inkscape:export-xdpi="95.599998"
         inkscape:export-ydpi="95.599998"><tspan
           style="fill:#f7fc00;fill-opacity:1;stroke:#f7fc00;stroke-width:0.36472px;stroke-opacity:1"
           y="194.35873"
           x="307.67654"
           id="tspan6068"
           sodipodi:role="line">RT</tspan></text>
      <path
         sodipodi:nodetypes="cc"
         inkscape:connector-curvature="0"
         id="path6072"
         d="M 303.40677,198.91449 V 173.8662"
         style="fill:#f7fc00;fill-opacity:1;fill-rule:evenodd;stroke:#f7fc00;stroke-width:1.5;stroke-linecap:butt;stroke-linejoin:miter;stroke-miterlimit:4;stroke-dasharray:none;stroke-opacity:1;marker-end:url(#marker6076)"
         inkscape:export-xdpi="95.599998"
         inkscape:export-ydpi="95.599998" />
    </g>
    <g
       transform="translate(37.901994)"
       inkscape:export-ydpi="95.601578"
       inkscape:export-xdpi="95.601578"
       id="g1163">
      <rect
         inkscape:export-ydpi="95.601578"
         inkscape:export-xdpi="95.601578"
         y="170.3494"
         x="335.85333"
         height="32"
         width="32"
         id="rect1063"
         style="opacity:1;fill:#000000;fill-opacity:1;fill-rule:nonzero;stroke:#ffce00;stroke-width:0.133333;stroke-linecap:round;stroke-linejoin:round;stroke-miterlimit:4;stroke-dasharray:none;stroke-dashoffset:0;stroke-opacity:1;paint-order:markers stroke fill" />
      <text
         inkscape:export-ydpi="95.601578"
         inkscape:export-xdpi="95.601578"
         id="text1067"
         y="187.1696"
         x="359.70435"
         style="font-style:normal;font-weight:normal;font-size:20.2633px;line-height:12.6645px;font-family:'Bitstream Vera Sans';letter-spacing:0px;word-spacing:0px;fill:#faff00;fill-opacity:0.986607;stroke:#f7fc00;stroke-width:0.506581px;stroke-linecap:butt;stroke-linejoin:miter;stroke-opacity:1"
         xml:space="preserve"
         transform="scale(0.93251546,1.0723683)"><tspan
           style="fill:#faff00;fill-opacity:0.986607;stroke:#f7fc00;stroke-width:0.506581px;stroke-opacity:1"
           y="187.1696"
           x="359.70435"
           id="tspan1065"
           sodipodi:role="line">INT</tspan></text>
      <path
         inkscape:export-ydpi="95.601578"
         inkscape:export-xdpi="95.601578"
         inkscape:connector-curvature="0"
         id="path1069"
         d="m 336.75231,177.58697 h 26.29257"
         style="fill:#f7fc00;fill-opacity:1;fill-rule:evenodd;stroke:#f7fc00;stroke-width:2;stroke-linecap:butt;stroke-linejoin:miter;stroke-miterlimit:4;stroke-dasharray:none;stroke-opacity:1;marker-end:url(#marker1079)" />
    </g>
    <g
       inkscape:export-ydpi="95.599998"
       inkscape:export-xdpi="95.599998"
       id="g1491">
      <rect
         inkscape:export-ydpi="95.599998"
         inkscape:export-xdpi="95.599998"
         y="170.3494"
         x="336.64743"
         height="32"
         width="32"
         id="rect1271"
         style="fill:#000000;fill-opacity:1;fill-rule:nonzero;stroke:#ffce00;stroke-width:0.133333;stroke-linecap:round;stroke-linejoin:round;stroke-miterlimit:4;stroke-dasharray:none;stroke-dashoffset:0;stroke-opacity:1;paint-order:markers stroke fill" />
      <text
         inkscape:export-ydpi="95.599998"
         inkscape:export-xdpi="95.599998"
         id="text1275"
         y="182.41632"
         x="344.94168"
         style="font-style:normal;font-weight:normal;font-size:14.5888px;line-height:9.11799px;font-family:'Bitstream Vera Sans';letter-spacing:0px;word-spacing:0px;fill:#faff00;fill-opacity:0.986607;stroke:#f7fc00;stroke-width:0.36472px;stroke-linecap:butt;stroke-linejoin:miter;stroke-opacity:1"
         xml:space="preserve"><tspan
           style="fill:#faff00;fill-opacity:0.986607;stroke:#f7fc00;stroke-width:0.36472px;stroke-opacity:1"
           y="182.41632"
           x="344.94168"
           id="tspan1273"
           sodipodi:role="line">DT</tspan></text>
      <path
         inkscape:export-ydpi="95.599998"
         inkscape:export-xdpi="95.599998"
         inkscape:connector-curvature="0"
         id="path1277"
         d="m 340.02829,198.37202 h 25.31754"
         style="fill:#f7fc00;fill-opacity:1;fill-rule:evenodd;stroke:#f7fc00;stroke-width:1.5;stroke-linecap:butt;stroke-linejoin:miter;stroke-miterlimit:4;stroke-dasharray:none;stroke-opacity:1;marker-end:url(#marker1289)"
         sodipodi:nodetypes="cc" />
      <text
         inkscape:export-ydpi="95.599998"
         inkscape:export-xdpi="95.599998"
         xml:space="preserve"
         style="font-style:normal;font-weight:normal;font-size:14.5888px;line-height:9.11799px;font-family:'Bitstream Vera Sans';letter-spacing:0px;word-spacing:0px;fill:#f7fc00;fill-opacity:1;stroke:#f7fc00;stroke-width:0.36472px;stroke-linecap:butt;stroke-linejoin:miter;stroke-opacity:1"
         x="344.9776"
         y="194.35873"
         id="text1281"><tspan
           sodipodi:role="line"
           id="tspan1279"
           x="344.9776"
           y="194.35873"
           style="fill:#f7fc00;fill-opacity:1;stroke:#f7fc00;stroke-width:0.36472px;stroke-opacity:1">RT</tspan></text>
      <path
         inkscape:export-ydpi="95.599998"
         inkscape:export-xdpi="95.599998"
         style="fill:#f7fc00;fill-opacity:1;fill-rule:evenodd;stroke:#f7fc00;stroke-width:1.5;stroke-linecap:butt;stroke-linejoin:miter;stroke-miterlimit:4;stroke-dasharray:none;stroke-opacity:1;marker-end:url(#marker1299)"
         d="M 340.70783,198.91449 V 173.8662"
         id="path1283"
         inkscape:connector-curvature="0"
         sodipodi:nodetypes="cc" />
    </g>
    <g
       id="g1259"
       inkscape:export-xdpi="95.599998"
       inkscape:export-ydpi="95.599998">
      <rect
         inkscape:export-ydpi="47.800789"
         inkscape:export-xdpi="47.800789"
         y="231.66325"
         x="154.62492"
         height="32"
         width="32"
         id="rect1130"
         style="fill:#ffffff;fill-opacity:0;fill-rule:nonzero;stroke:#000000;stroke-width:0.133333;stroke-linecap:round;stroke-linejoin:round;stroke-miterlimit:4;stroke-dasharray:none;stroke-dashoffset:0;stroke-opacity:1;paint-order:markers stroke fill" />
      <g
         id="g1148"
         transform="translate(-107.09385)"
         inkscape:export-xdpi="47.800789"
         inkscape:export-ydpi="47.800789"
         style="stroke-width:2;stroke-miterlimit:4;stroke-dasharray:none">
        <path
           sodipodi:nodetypes="cc"
           inkscape:connector-curvature="0"
           id="path1132"
           d="M 264.99194,261.98672 267.3452,234.0938"
           style="fill:none;fill-rule:evenodd;stroke:#ff0606;stroke-width:2;stroke-linecap:butt;stroke-linejoin:miter;stroke-miterlimit:4;stroke-dasharray:none;stroke-opacity:1" />
        <path
           sodipodi:nodetypes="cc"
           inkscape:connector-curvature="0"
           id="path1134"
           d="m 264.99194,261.98672 1.31666,-16.03677"
           style="fill:none;fill-rule:evenodd;stroke:#040cfc;stroke-width:2;stroke-linecap:butt;stroke-linejoin:miter;stroke-miterlimit:4;stroke-dasharray:none;stroke-opacity:1" />
        <path
           style="fill:none;fill-rule:evenodd;stroke:#1006ff;stroke-width:2;stroke-linecap:butt;stroke-linejoin:miter;stroke-miterlimit:4;stroke-dasharray:none;stroke-opacity:1"
           d="m 267.3452,234.0938 3.45467,27.89292 h 3.19551 l 3.00114,-20.60123 3.00114,20.60123 h 3.00115 l 3.00114,-12.73923 3.09552,13.49415"
           id="path1136"
           inkscape:connector-curvature="0"
           sodipodi:nodetypes="cccccccc" />
        <path
           sodipodi:nodetypes="cc"
           inkscape:connector-curvature="0"
           id="path1138"
           d="m 267.3452,234.0938 1.51104,11.82558"
           style="fill:none;fill-rule:evenodd;stroke:#ff0606;stroke-width:2;stroke-linecap:butt;stroke-linejoin:miter;stroke-miterlimit:4;stroke-dasharray:none;stroke-opacity:1" />
        <path
           sodipodi:nodetypes="cc"
           inkscape:connector-curvature="0"
           id="path1140"
           d="m 275.42071,252.59251 1.57581,-11.20702"
           style="fill:none;fill-rule:evenodd;stroke:#ff0606;stroke-width:2;stroke-linecap:butt;stroke-linejoin:miter;stroke-miterlimit:4;stroke-dasharray:none;stroke-opacity:1" />
        <path
           sodipodi:nodetypes="cc"
           inkscape:connector-curvature="0"
           id="path1142"
           d="m 276.99652,241.38549 1.57581,11.14223"
           style="fill:none;fill-rule:evenodd;stroke:#ff0606;stroke-width:2;stroke-linecap:butt;stroke-linejoin:miter;stroke-miterlimit:4;stroke-dasharray:none;stroke-opacity:1" />
        <path
           sodipodi:nodetypes="cc"
           inkscape:connector-curvature="0"
           id="path1144"
           d="m 284.50846,255.72446 1.49149,-6.47697"
           style="fill:none;fill-rule:evenodd;stroke:#ff0606;stroke-width:2;stroke-linecap:butt;stroke-linejoin:miter;stroke-miterlimit:4;stroke-dasharray:none;stroke-opacity:1" />
        <path
           sodipodi:nodetypes="cc"
           inkscape:connector-curvature="0"
           id="path1146"
           d="m 285.99995,249.24749 1.60332,6.64471"
           style="fill:none;fill-rule:evenodd;stroke:#ff0606;stroke-width:2;stroke-linecap:butt;stroke-linejoin:miter;stroke-miterlimit:4;stroke-dasharray:none;stroke-opacity:1" />
      </g>
      <path
         style="fill:none;fill-rule:evenodd;stroke:#000000;stroke-width:3;stroke-linecap:butt;stroke-linejoin:bevel;stroke-miterlimit:4;stroke-dasharray:none;stroke-opacity:1"
         d="m 174.98989,245.84033 v 1.67998 h -10.78747 l 5.9206,-6.25296 -4.52423,-6.38188 h 9.38359 v 1.35374"
         id="path1150"
         inkscape:connector-curvature="0"
         sodipodi:nodetypes="ccccccc"
         inkscape:export-xdpi="47.800789"
         inkscape:export-ydpi="47.800789" />
      <path
         inkscape:connector-curvature="0"
         id="path1236"
         d="m 179.80994,234.06747 v 12.77598"
         style="fill:none;fill-rule:evenodd;stroke:#000000;stroke-width:3;stroke-linecap:butt;stroke-linejoin:miter;stroke-miterlimit:4;stroke-dasharray:none;stroke-opacity:1" />
      <path
         style="fill:none;fill-rule:evenodd;stroke:#000000;stroke-width:3;stroke-linecap:butt;stroke-linejoin:miter;stroke-miterlimit:4;stroke-dasharray:none;stroke-opacity:1"
         d="M 186.19793,240.45546 H 173.42195"
         id="path1238"
         inkscape:connector-curvature="0" />
    </g>
    <g
       id="g1273"
       inkscape:export-xdpi="95.599998"
       inkscape:export-ydpi="95.599998">
      <rect
         inkscape:export-ydpi="47.800789"
         inkscape:export-xdpi="47.800789"
         y="231.66325"
         x="115.65817"
         height="32"
         width="32"
         id="rect1224"
         style="fill:#ffffff;fill-opacity:0;fill-rule:nonzero;stroke:#000000;stroke-width:0.133333;stroke-linecap:round;stroke-linejoin:round;stroke-miterlimit:4;stroke-dasharray:none;stroke-dashoffset:0;stroke-opacity:1;paint-order:markers stroke fill" />
      <g
         id="g1310"
         transform="translate(-146.0606)"
         inkscape:export-xdpi="47.800789"
         inkscape:export-ydpi="47.800789"
         style="stroke-width:2;stroke-miterlimit:4;stroke-dasharray:none">
        <path
           sodipodi:nodetypes="cc"
           inkscape:connector-curvature="0"
           id="path1284"
           d="M 264.99194,261.98672 267.3452,234.0938"
           style="fill:none;fill-rule:evenodd;stroke:#ff0606;stroke-width:2;stroke-linecap:butt;stroke-linejoin:miter;stroke-miterlimit:4;stroke-dasharray:none;stroke-opacity:1" />
        <path
           sodipodi:nodetypes="cc"
           inkscape:connector-curvature="0"
           id="path1280"
           d="m 264.99194,261.98672 1.31666,-16.03677"
           style="fill:none;fill-rule:evenodd;stroke:#040cfc;stroke-width:2;stroke-linecap:butt;stroke-linejoin:miter;stroke-miterlimit:4;stroke-dasharray:none;stroke-opacity:1" />
        <path
           style="fill:none;fill-rule:evenodd;stroke:#1006ff;stroke-width:2;stroke-linecap:butt;stroke-linejoin:miter;stroke-miterlimit:4;stroke-dasharray:none;stroke-opacity:1"
           d="m 267.3452,234.0938 3.45467,27.89292 h 3.19551 l 3.00114,-20.60123 3.00114,20.60123 h 3.00115 l 3.00114,-12.73923 3.09552,13.49415"
           id="path1286"
           inkscape:connector-curvature="0"
           sodipodi:nodetypes="cccccccc" />
        <path
           sodipodi:nodetypes="cc"
           inkscape:connector-curvature="0"
           id="path1300"
           d="m 267.3452,234.0938 1.51104,11.82558"
           style="fill:none;fill-rule:evenodd;stroke:#ff0606;stroke-width:2;stroke-linecap:butt;stroke-linejoin:miter;stroke-miterlimit:4;stroke-dasharray:none;stroke-opacity:1" />
        <path
           sodipodi:nodetypes="cc"
           inkscape:connector-curvature="0"
           id="path1296"
           d="m 275.42071,252.59251 1.57581,-11.20702"
           style="fill:none;fill-rule:evenodd;stroke:#ff0606;stroke-width:2;stroke-linecap:butt;stroke-linejoin:miter;stroke-miterlimit:4;stroke-dasharray:none;stroke-opacity:1" />
        <path
           sodipodi:nodetypes="cc"
           inkscape:connector-curvature="0"
           id="path1294"
           d="m 276.99652,241.38549 1.57581,11.14223"
           style="fill:none;fill-rule:evenodd;stroke:#ff0606;stroke-width:2;stroke-linecap:butt;stroke-linejoin:miter;stroke-miterlimit:4;stroke-dasharray:none;stroke-opacity:1" />
        <path
           sodipodi:nodetypes="cc"
           inkscape:connector-curvature="0"
           id="path1290"
           d="m 284.50846,255.72446 1.49149,-6.47697"
           style="fill:none;fill-rule:evenodd;stroke:#ff0606;stroke-width:2;stroke-linecap:butt;stroke-linejoin:miter;stroke-miterlimit:4;stroke-dasharray:none;stroke-opacity:1" />
        <path
           sodipodi:nodetypes="cc"
           inkscape:connector-curvature="0"
           id="path1226"
           d="m 285.99995,249.24749 1.60332,6.64471"
           style="fill:none;fill-rule:evenodd;stroke:#ff0606;stroke-width:2;stroke-linecap:butt;stroke-linejoin:miter;stroke-miterlimit:4;stroke-dasharray:none;stroke-opacity:1" />
      </g>
      <path
         style="fill:none;fill-rule:evenodd;stroke:#000000;stroke-width:3;stroke-linecap:butt;stroke-linejoin:bevel;stroke-miterlimit:4;stroke-dasharray:none;stroke-opacity:1"
         d="m 136.02314,245.84033 v 1.67998 h -10.78747 l 5.9206,-6.25296 -4.52423,-6.38188 h 9.38359 v 1.35374"
         id="path1254"
         inkscape:connector-curvature="0"
         sodipodi:nodetypes="ccccccc"
         inkscape:export-xdpi="47.800789"
         inkscape:export-ydpi="47.800789" />
      <path
         style="fill:none;fill-rule:evenodd;stroke:#000000;stroke-width:3;stroke-linecap:butt;stroke-linejoin:miter;stroke-miterlimit:4;stroke-dasharray:none;stroke-opacity:1"
         d="M 147.17216,240.45546 H 134.39618"
         id="path1244"
         inkscape:connector-curvature="0" />
    </g>
  </g>
  <metadata
     id="metadata41">
    <rdf:RDF>
      <cc:Work>
        <dc:format>image/svg+xml</dc:format>
        <dc:type
           rdf:resource="http://purl.org/dc/dcmitype/StillImage" />
        <cc:license
           rdf:resource="http://creativecommons.org/publicdomain/zero/1.0/" />
        <dc:publisher>
          <cc:Agent
             rdf:about="http://openclipart.org/">
            <dc:title>Openclipart</dc:title>
          </cc:Agent>
        </dc:publisher>
        <dc:title></dc:title>
        <dc:date>2010-10-06T22:33:25</dc:date>
        <dc:description>Push pin icon</dc:description>
        <dc:source>https://openclipart.org/detail/89059/push-pin-icon-by-jhnri4</dc:source>
        <dc:creator>
          <cc:Agent>
            <dc:title>jhnri4</dc:title>
          </cc:Agent>
        </dc:creator>
        <dc:subject>
          <rdf:Bag>
            <rdf:li>icon</rdf:li>
            <rdf:li>needle</rdf:li>
            <rdf:li>post</rdf:li>
            <rdf:li>push pin</rdf:li>
            <rdf:li>pushpin</rdf:li>
            <rdf:li>red</rdf:li>
          </rdf:Bag>
        </dc:subject>
      </cc:Work>
      <cc:License
         rdf:about="http://creativecommons.org/publicdomain/zero/1.0/">
        <cc:permits
           rdf:resource="http://creativecommons.org/ns#Reproduction" />
        <cc:permits
           rdf:resource="http://creativecommons.org/ns#Distribution" />
        <cc:permits
           rdf:resource="http://creativecommons.org/ns#DerivativeWorks" />
      </cc:License>
    </rdf:RDF>
  </metadata>
</svg>
