<?xml version="1.0" encoding="UTF-8" standalone="no"?>
<!-- Created with Inkscape (http://www.inkscape.org/) -->

<svg
   xmlns:dc="http://purl.org/dc/elements/1.1/"
   xmlns:cc="http://creativecommons.org/ns#"
   xmlns:rdf="http://www.w3.org/1999/02/22-rdf-syntax-ns#"
   xmlns:svg="http://www.w3.org/2000/svg"
   xmlns="http://www.w3.org/2000/svg"
   xmlns:xlink="http://www.w3.org/1999/xlink"
   xmlns:sodipodi="http://sodipodi.sourceforge.net/DTD/sodipodi-0.dtd"
   xmlns:inkscape="http://www.inkscape.org/namespaces/inkscape"
   id="svg2"
   version="1.1"
   inkscape:version="0.92.2 (5c3e80d, 2017-08-06)"
   width="32"
   height="32"
   viewBox="0 0 32 32"
   sodipodi:docname="plot-widget-help.svg"
   inkscape:export-filename="/home/rusconi/devel/msxpertsuite/development/images/plot-widget-help.png"
   inkscape:export-xdpi="300.052"
   inkscape:export-ydpi="300.052">
  <metadata
     id="metadata8">
    <rdf:RDF>
      <cc:Work
         rdf:about="">
        <dc:format>image/svg+xml</dc:format>
        <dc:type
           rdf:resource="http://purl.org/dc/dcmitype/StillImage" />
        <dc:title />
      </cc:Work>
    </rdf:RDF>
  </metadata>
  <defs
     id="defs6">
    <linearGradient
       id="linearGradient995-6"
       inkscape:collect="always">
      <stop
         id="stop1001"
         offset="0"
         style="stop-color:#ff00cc;stop-opacity:1" />
      <stop
         id="stop1003"
         offset="1"
         style="stop-color:#00ff00;stop-opacity:1" />
    </linearGradient>
    <marker
       inkscape:isstock="true"
       style="overflow:visible;"
       id="marker7344"
       refX="0.0"
       refY="0.0"
       orient="auto"
       inkscape:stockid="Arrow1Mend">
      <path
         transform="scale(0.4) rotate(180) translate(10,0)"
         style="fill-rule:evenodd;stroke:#ff0000;stroke-width:1pt;stroke-opacity:1;fill:#ff0000;fill-opacity:1"
         d="M 0.0,0.0 L 5.0,-5.0 L -12.5,0.0 L 5.0,5.0 L 0.0,0.0 z "
         id="path7346" />
    </marker>
    <marker
       inkscape:isstock="true"
       style="overflow:visible"
       id="marker7304"
       refX="0.0"
       refY="0.0"
       orient="auto"
       inkscape:stockid="Arrow1Mstart">
      <path
         transform="scale(0.4) translate(10,0)"
         style="fill-rule:evenodd;stroke:#ff0000;stroke-width:1pt;stroke-opacity:1;fill:#ff0000;fill-opacity:1"
         d="M 0.0,0.0 L 5.0,-5.0 L -12.5,0.0 L 5.0,5.0 L 0.0,0.0 z "
         id="path7306" />
    </marker>
    <marker
       inkscape:stockid="Arrow1Lend"
       orient="auto"
       refY="0.0"
       refX="0.0"
       id="Arrow1Lend"
       style="overflow:visible;"
       inkscape:isstock="true">
      <path
         id="path4227"
         d="M 0.0,0.0 L 5.0,-5.0 L -12.5,0.0 L 5.0,5.0 L 0.0,0.0 z "
         style="fill-rule:evenodd;stroke:#ff0000;stroke-width:1pt;stroke-opacity:1;fill:#ff0000;fill-opacity:1"
         transform="scale(0.8) rotate(180) translate(12.5,0)" />
    </marker>
    <marker
       inkscape:stockid="Arrow1Lstart"
       orient="auto"
       refY="0.0"
       refX="0.0"
       id="Arrow1Lstart"
       style="overflow:visible"
       inkscape:isstock="true">
      <path
         id="path4224"
         d="M 0.0,0.0 L 5.0,-5.0 L -12.5,0.0 L 5.0,5.0 L 0.0,0.0 z "
         style="fill-rule:evenodd;stroke:#ff0000;stroke-width:1pt;stroke-opacity:1;fill:#ff0000;fill-opacity:1"
         transform="scale(0.8) translate(12.5,0)" />
    </marker>
    <linearGradient
       inkscape:collect="always"
       xlink:href="#linearGradient995-6"
       id="linearGradient999"
       gradientUnits="userSpaceOnUse"
       x1="15.902534"
       y1="7.3785243"
       x2="15.902534"
       y2="24.39901"
       gradientTransform="matrix(1.3752386,0,0,1.3752386,-6.0362262,-6.0300232)" />
  </defs>
  <sodipodi:namedview
     pagecolor="#ffffff"
     bordercolor="#666666"
     borderopacity="1"
     objecttolerance="10"
     gridtolerance="10"
     guidetolerance="10"
     inkscape:pageopacity="0"
     inkscape:pageshadow="2"
     inkscape:window-width="640"
     inkscape:window-height="480"
     id="namedview4"
     showgrid="false"
     inkscape:zoom="16.56827"
     inkscape:cx="12.05325"
     inkscape:cy="19.103991"
     inkscape:current-layer="svg2" />
  <image
     width="32"
     height="32"
     preserveAspectRatio="none"
     xlink:href="data:image/png;base64,iVBORw0KGgoAAAANSUhEUgAAACAAAAAgCAYAAABzenr0AAAABHNCSVQICAgIfAhkiAAACERJREFU WIWll1msXVUZx39r7eGcfe6588S9vfSWlpbSlhaKVQTEFGMEEoKYmGAfwDkYgxBMlERfNDHGBx81 +ECMCA8kWoOGBKXQyINiQVKETreF0tty5+kMe1yTD/s0SNDeRnays8/ZWfm+3/p/6xu24DKv7bt3 0HPfbuaiBN8JhpZ9jvzk9wDced89xJ8bZbGWMe73cVfXHr57x9cuy664nEU7r7+O6Ms3cDw9zw47 zHy2wmw9ZUc6RPVkzPKn6kz7DfrzkJWqZrg+wGeCq3nqiz9d17a8HIDorq1MNWd4kJu5pbmBr0ef ZtOFKsfsDMeviTnXnOcRezuPX/UtfjX4AHJVcSR/lxcOv7SubW+9BX1DA2SfHGJzu4f20fO89Pwh wkrIxtoobxXnyWXBx9oTzB0+xqE/v8D2rdvYXB3h70xzYeU9pv545KMpMHrzNhpZi4m8zrl33qVW 62bq5HGKZky16UHDMLgccPKtE4xvGOefrx1hT88kFeXxjl7g8OHDl7TvrweQDoIuFF06YOyKcdqp IWnMl4cnNQgsA/V+rrxyCxvGd+K5JTygz9Zo2TX279//0QDyUKOMptCKrdu3kcQpuI3MtZdQIgdj ybTi3i/cg+9XGR/bRZLFJDrBOLWe+fVDYEOJlY4LySK5UggpKKxmJllFeRonHDPxEtaD3sE61hpm GgssihYtk/LNXzz2/wPcdvdnKXwDwnLaW2YhWyN1iqW8xXuiAdKBFJw1y8wkKzTSmJnmAi+vnqDl tSiMZkU1LwlwyRBEm4fIgiVwguU+xZGFd+lzEU2bUPQL/CDEr1TJuuEfK2eYymZp6FVOXtEArdDO o2mzSwL8z0L01cceIttQ4c1kmtWsiUgNraxNWqTkeVKie0DFw6tUGIgGibwKc1GTalQlJMQ3gqvF EHcO3MgPDnzn8gCe+dNBTmWznMpneTueYT5bIc9ydK5YTtcwWoHTIBx4EkIPQoHn+YxUh+mudFPz KuAJBJKq89gUDLCzOsEP73v40gCPH/wtbxTTvKbOclzNkOkECgeFxWqDUwasLQGw4IkSwhelGp6g N+hhxB9GCIlHCRY5n1FRZ6s/wr76Fg7c+6UPA/zyD0/ySnKGQ/oYs6zhrEMawFgoLM45nHHlYpuD MIAE2XEuRakKjkCEjHlXoFDMm0UiL2LI62eD62ebN8L1lQkeOfDt9wF+ffBpXk5O8Zx+k2XZxkkQ VmCLAlfEpVMZIZyH8CRWp2CLjlPefzoHrgNtQQiBEw68suJHospVYow9bpwbok187/6Hyyw4Fl/g L+lRlis5Uvp4CByOXMVgVZmswkP63SAEyABM0cG3HUBZ/rSlCghw1nbWl+ma2oTT9hwCg2gZALwn fvcULzb/xRt2ijDswhOSEX+AZHURnbdLAwIQEhnUOjACISCQXSAlTlhwpgMkShUughiLLyIcGnBY a2nrlKr2+PzddyCn4wWOxqdwOHCCwqTc2L0d3U5gPoO0AN2hdWB1hmdgk9zIZjnOmBsitN0E1Ilk NxIPYV2pRmFgJSZYU+yp76bqQrCWVCecV4tciFfwZ9MlVvQKwlXwrQPnmC+W0D0+Iq7ippagR0I9 ofDXwFh0oTgbnyhjLQVEPtR8VCVASA+pLTbOcUspvqzRs2uQsdoonmpxon2BzCas6iYN28afz1Yw pgAbEBdrOGH52/wrYAqqw4NkMzHuTAwiK2MJkDtk2yEVuABMt4AuAYHAOTDKQhtEV5WRm3cwn87y ytyrxGqZgApDosZq0aBtY/xcF6At5BnOFYiggrMGrCI1TcSuQTguYLYJawo0VBctwy2PyYktLC8u 8Z5eoT0ssNVOVtd8RG8Ff+8wM9kM2JhVmwAOZXMENaw2aKvwfSvLWFUAJXHWQVBDBBFOt3FRiNjS D2MRLkkgdlz1XIt9MYycXaRdpCxZyQsTFRqTHnT7UI9wNU0Q1VDtBki/PJgqx1lDW+WQWRAWP7I+ pAZCUR4cT4Nu4fygTK2shRvsRlCHbgHWsLpDw19bGNp0WUcsHfFNPTAgwPgIo6kM9VPEKVgDujMX OAvGgTIIJQiFQE5Eo9SyEBJdKqEMaCDPocjK/0WG61EIUwXPY2FfFycmI+alY9q3vLyvCz0gAYlw AtnrU3EhOm2Wzp0D3bFfaCgsXgqRkfh7N1zL9nOTvN46XlJWOykkZUkvHMQJ9HVBzRKkPaiejFcP CF5fVOA5zFAIIkBYh6sX1GpDNOZmSnjhgTHlOdMWVNlb6nFIb7VSlo6v/Oghnj79LEW/g5oPoSzr u3XlHYjyfU8XJApyH6zoVDxZNigKqFqohrDahpYq4y5Ex7GF3JYqNB1X+2OceebNciK6bdvHua6y FTFfQLOAdvH+4kRBrKCRw3ITwhBZ88BXIAogAy+HmoTAh6UmrOaQGcgv3hYSAy0Ni5aRVhc7+zd9 sBs+/OPv8/zRQ5xW57EDErq8ss0qW8YwkKUSkcTv7iWo9SI9H+0USqfYuAWNBOKO3KazeyhbetMg 1xxDusbezdt5/jeHPjwPPPDog7x09EWW8gZZt8X1yPIMKAcBEHUgAlmGSXbCoG2548KWzlSnK0oB OYimI2zAWLWPvddex8Ennv3wPPCf17W372JhdZlMaLLIYL3SHhWgLqDS6XAX269zUFA6Sx1CCYRx eDnUbUhfpc74wBCf2L2Xn//s8Q/4uuTH6U1338LU9Ns0gwJTdSWEoOxKF+dpRyl34YQoZXdSOXry gGtGx5kc38itN97KQ4/+9/H8sr6O+cYktPKykKxqyJ3AdHZukeAcgXB0ScdgCE/NMXj/NpafnFrX 9L8BKxFAQoDYuTUAAAAASUVORK5CYII= "
     id="image10"
     x="0"
     y="0"
     inkscape:export-xdpi="300.052"
     inkscape:export-ydpi="300.052" />
  <rect
     style="opacity:1;fill:#e5ebf5;fill-opacity:1;stroke:none;stroke-width:2.0999999;stroke-miterlimit:4;stroke-dasharray:none;stroke-dashoffset:0;stroke-opacity:1"
     id="rect4138"
     width="31.150766"
     height="30.96059"
     x="0.45642146"
     y="0.5829885"
     inkscape:export-xdpi="300.052"
     inkscape:export-ydpi="300.052" />
  <rect
     style="opacity:1;fill:#e5ebf5;fill-opacity:1;stroke:#000000;stroke-width:0.40000001;stroke-miterlimit:4;stroke-dasharray:none;stroke-dashoffset:0;stroke-opacity:1"
     id="rect4140"
     width="30.085783"
     height="11.334467"
     x="0.87480783"
     y="3.2454472"
     inkscape:export-xdpi="300.052"
     inkscape:export-ydpi="300.052" />
  <rect
     y="18.041109"
     x="0.87480783"
     height="11.334467"
     width="30.085783"
     id="rect4142"
     style="opacity:1;fill:#e5ebf5;fill-opacity:1;stroke:#000000;stroke-width:0.40000001;stroke-miterlimit:4;stroke-dasharray:none;stroke-dashoffset:0;stroke-opacity:1"
     inkscape:export-xdpi="300.052"
     inkscape:export-ydpi="300.052" />
  <path
     style="fill:none;fill-rule:evenodd;stroke:#000000;stroke-width:0.5;stroke-linecap:butt;stroke-linejoin:miter;stroke-opacity:1;stroke-miterlimit:4;stroke-dasharray:none"
     d="m 0.9889132,5.2993437 0.9508781,0"
     id="path4146"
     inkscape:connector-curvature="0"
     inkscape:export-xdpi="300.052"
     inkscape:export-ydpi="300.052" />
  <path
     inkscape:connector-curvature="0"
     id="path4148"
     d="m 0.9889132,7.2993437 0.9508781,0"
     style="fill:none;fill-rule:evenodd;stroke:#000000;stroke-width:0.5;stroke-linecap:butt;stroke-linejoin:miter;stroke-miterlimit:4;stroke-dasharray:none;stroke-opacity:1"
     inkscape:export-xdpi="300.052"
     inkscape:export-ydpi="300.052" />
  <path
     style="fill:none;fill-rule:evenodd;stroke:#000000;stroke-width:0.5;stroke-linecap:butt;stroke-linejoin:miter;stroke-miterlimit:4;stroke-dasharray:none;stroke-opacity:1"
     d="m 0.9889132,9.2993437 0.9508781,0"
     id="path4150"
     inkscape:connector-curvature="0"
     inkscape:export-xdpi="300.052"
     inkscape:export-ydpi="300.052" />
  <path
     inkscape:connector-curvature="0"
     id="path4152"
     d="m 0.9889132,11.299344 0.9508781,0"
     style="fill:none;fill-rule:evenodd;stroke:#000000;stroke-width:0.5;stroke-linecap:butt;stroke-linejoin:miter;stroke-miterlimit:4;stroke-dasharray:none;stroke-opacity:1"
     inkscape:export-xdpi="300.052"
     inkscape:export-ydpi="300.052" />
  <path
     style="fill:none;fill-rule:evenodd;stroke:#000000;stroke-width:0.5;stroke-linecap:butt;stroke-linejoin:miter;stroke-miterlimit:4;stroke-dasharray:none;stroke-opacity:1"
     d="m 0.9889132,13.299344 0.9508781,0"
     id="path4154"
     inkscape:connector-curvature="0"
     inkscape:export-xdpi="300.052"
     inkscape:export-ydpi="300.052" />
  <path
     inkscape:connector-curvature="0"
     id="path4156"
     d="m 0.9889132,20.018936 0.9508781,0"
     style="fill:none;fill-rule:evenodd;stroke:#000000;stroke-width:0.5;stroke-linecap:butt;stroke-linejoin:miter;stroke-miterlimit:4;stroke-dasharray:none;stroke-opacity:1"
     inkscape:export-xdpi="300.052"
     inkscape:export-ydpi="300.052" />
  <path
     style="fill:none;fill-rule:evenodd;stroke:#000000;stroke-width:0.5;stroke-linecap:butt;stroke-linejoin:miter;stroke-miterlimit:4;stroke-dasharray:none;stroke-opacity:1"
     d="m 0.9889132,22.018936 0.9508781,0"
     id="path4158"
     inkscape:connector-curvature="0"
     inkscape:export-xdpi="300.052"
     inkscape:export-ydpi="300.052" />
  <path
     inkscape:connector-curvature="0"
     id="path4160"
     d="m 0.9889132,24.018936 0.9508781,0"
     style="fill:none;fill-rule:evenodd;stroke:#000000;stroke-width:0.5;stroke-linecap:butt;stroke-linejoin:miter;stroke-miterlimit:4;stroke-dasharray:none;stroke-opacity:1"
     inkscape:export-xdpi="300.052"
     inkscape:export-ydpi="300.052" />
  <path
     style="fill:none;fill-rule:evenodd;stroke:#000000;stroke-width:0.5;stroke-linecap:butt;stroke-linejoin:miter;stroke-miterlimit:4;stroke-dasharray:none;stroke-opacity:1"
     d="m 0.9889132,26.018937 0.9508781,0"
     id="path4162"
     inkscape:connector-curvature="0"
     inkscape:export-xdpi="300.052"
     inkscape:export-ydpi="300.052" />
  <path
     inkscape:connector-curvature="0"
     id="path4164"
     d="m 0.9889132,28.018937 0.9508781,0"
     style="fill:none;fill-rule:evenodd;stroke:#000000;stroke-width:0.5;stroke-linecap:butt;stroke-linejoin:miter;stroke-miterlimit:4;stroke-dasharray:none;stroke-opacity:1"
     inkscape:export-xdpi="300.052"
     inkscape:export-ydpi="300.052" />
  <path
     style="fill:none;fill-rule:evenodd;stroke:#000000;stroke-width:0.5;stroke-linecap:butt;stroke-linejoin:miter;stroke-miterlimit:4;stroke-dasharray:none;stroke-opacity:1"
     d="m 3.6323543,29.204418 0,-0.950878"
     id="path4166"
     inkscape:connector-curvature="0"
     inkscape:export-xdpi="300.052"
     inkscape:export-ydpi="300.052" />
  <path
     inkscape:connector-curvature="0"
     id="path4168"
     d="m 5.6323543,29.204418 0,-0.950878"
     style="fill:none;fill-rule:evenodd;stroke:#000000;stroke-width:0.5;stroke-linecap:butt;stroke-linejoin:miter;stroke-miterlimit:4;stroke-dasharray:none;stroke-opacity:1"
     inkscape:export-xdpi="300.052"
     inkscape:export-ydpi="300.052" />
  <path
     style="fill:none;fill-rule:evenodd;stroke:#000000;stroke-width:0.5;stroke-linecap:butt;stroke-linejoin:miter;stroke-miterlimit:4;stroke-dasharray:none;stroke-opacity:1"
     d="m 7.6323543,29.204418 0,-0.950878"
     id="path4170"
     inkscape:connector-curvature="0"
     inkscape:export-xdpi="300.052"
     inkscape:export-ydpi="300.052" />
  <path
     inkscape:connector-curvature="0"
     id="path4172"
     d="m 9.6323543,29.204418 0,-0.950878"
     style="fill:none;fill-rule:evenodd;stroke:#000000;stroke-width:0.5;stroke-linecap:butt;stroke-linejoin:miter;stroke-miterlimit:4;stroke-dasharray:none;stroke-opacity:1"
     inkscape:export-xdpi="300.052"
     inkscape:export-ydpi="300.052" />
  <path
     style="fill:none;fill-rule:evenodd;stroke:#000000;stroke-width:0.5;stroke-linecap:butt;stroke-linejoin:miter;stroke-miterlimit:4;stroke-dasharray:none;stroke-opacity:1"
     d="m 11.632354,29.204418 0,-0.950878"
     id="path4174"
     inkscape:connector-curvature="0"
     inkscape:export-xdpi="300.052"
     inkscape:export-ydpi="300.052" />
  <path
     inkscape:connector-curvature="0"
     id="path4176"
     d="m 13.632354,29.204418 0,-0.950878"
     style="fill:none;fill-rule:evenodd;stroke:#000000;stroke-width:0.5;stroke-linecap:butt;stroke-linejoin:miter;stroke-miterlimit:4;stroke-dasharray:none;stroke-opacity:1"
     inkscape:export-xdpi="300.052"
     inkscape:export-ydpi="300.052" />
  <path
     style="fill:none;fill-rule:evenodd;stroke:#000000;stroke-width:0.5;stroke-linecap:butt;stroke-linejoin:miter;stroke-miterlimit:4;stroke-dasharray:none;stroke-opacity:1"
     d="m 15.632354,29.204418 0,-0.950878"
     id="path4178"
     inkscape:connector-curvature="0"
     inkscape:export-xdpi="300.052"
     inkscape:export-ydpi="300.052" />
  <path
     inkscape:connector-curvature="0"
     id="path4180"
     d="m 17.632354,29.204418 0,-0.950878"
     style="fill:none;fill-rule:evenodd;stroke:#000000;stroke-width:0.5;stroke-linecap:butt;stroke-linejoin:miter;stroke-miterlimit:4;stroke-dasharray:none;stroke-opacity:1"
     inkscape:export-xdpi="300.052"
     inkscape:export-ydpi="300.052" />
  <path
     style="fill:none;fill-rule:evenodd;stroke:#000000;stroke-width:0.5;stroke-linecap:butt;stroke-linejoin:miter;stroke-miterlimit:4;stroke-dasharray:none;stroke-opacity:1"
     d="m 19.632354,29.204418 0,-0.950878"
     id="path4182"
     inkscape:connector-curvature="0"
     inkscape:export-xdpi="300.052"
     inkscape:export-ydpi="300.052" />
  <path
     inkscape:connector-curvature="0"
     id="path4184"
     d="m 21.632354,29.204418 0,-0.950878"
     style="fill:none;fill-rule:evenodd;stroke:#000000;stroke-width:0.5;stroke-linecap:butt;stroke-linejoin:miter;stroke-miterlimit:4;stroke-dasharray:none;stroke-opacity:1"
     inkscape:export-xdpi="300.052"
     inkscape:export-ydpi="300.052" />
  <path
     style="fill:none;fill-rule:evenodd;stroke:#000000;stroke-width:0.5;stroke-linecap:butt;stroke-linejoin:miter;stroke-miterlimit:4;stroke-dasharray:none;stroke-opacity:1"
     d="m 23.632354,29.204418 0,-0.950878"
     id="path4186"
     inkscape:connector-curvature="0"
     inkscape:export-xdpi="300.052"
     inkscape:export-ydpi="300.052" />
  <path
     inkscape:connector-curvature="0"
     id="path4188"
     d="m 25.632354,29.204418 0,-0.950878"
     style="fill:none;fill-rule:evenodd;stroke:#000000;stroke-width:0.5;stroke-linecap:butt;stroke-linejoin:miter;stroke-miterlimit:4;stroke-dasharray:none;stroke-opacity:1"
     inkscape:export-xdpi="300.052"
     inkscape:export-ydpi="300.052" />
  <path
     style="fill:none;fill-rule:evenodd;stroke:#000000;stroke-width:0.5;stroke-linecap:butt;stroke-linejoin:miter;stroke-miterlimit:4;stroke-dasharray:none;stroke-opacity:1"
     d="m 27.632354,29.204418 0,-0.950878"
     id="path4190"
     inkscape:connector-curvature="0"
     inkscape:export-xdpi="300.052"
     inkscape:export-ydpi="300.052" />
  <path
     inkscape:connector-curvature="0"
     id="path4192"
     d="m 3.6323543,14.40568 0,-0.950878"
     style="fill:none;fill-rule:evenodd;stroke:#000000;stroke-width:0.5;stroke-linecap:butt;stroke-linejoin:miter;stroke-miterlimit:4;stroke-dasharray:none;stroke-opacity:1"
     inkscape:export-xdpi="300.052"
     inkscape:export-ydpi="300.052" />
  <path
     style="fill:none;fill-rule:evenodd;stroke:#000000;stroke-width:0.5;stroke-linecap:butt;stroke-linejoin:miter;stroke-miterlimit:4;stroke-dasharray:none;stroke-opacity:1"
     d="m 5.6323543,14.40568 0,-0.950878"
     id="path4194"
     inkscape:connector-curvature="0"
     inkscape:export-xdpi="300.052"
     inkscape:export-ydpi="300.052" />
  <path
     inkscape:connector-curvature="0"
     id="path4196"
     d="m 7.6323543,14.40568 0,-0.950878"
     style="fill:none;fill-rule:evenodd;stroke:#000000;stroke-width:0.5;stroke-linecap:butt;stroke-linejoin:miter;stroke-miterlimit:4;stroke-dasharray:none;stroke-opacity:1"
     inkscape:export-xdpi="300.052"
     inkscape:export-ydpi="300.052" />
  <path
     style="fill:none;fill-rule:evenodd;stroke:#000000;stroke-width:0.5;stroke-linecap:butt;stroke-linejoin:miter;stroke-miterlimit:4;stroke-dasharray:none;stroke-opacity:1"
     d="m 9.6323543,14.40568 0,-0.950878"
     id="path4198"
     inkscape:connector-curvature="0"
     inkscape:export-xdpi="300.052"
     inkscape:export-ydpi="300.052" />
  <path
     inkscape:connector-curvature="0"
     id="path4200"
     d="m 11.632354,14.40568 0,-0.950878"
     style="fill:none;fill-rule:evenodd;stroke:#000000;stroke-width:0.5;stroke-linecap:butt;stroke-linejoin:miter;stroke-miterlimit:4;stroke-dasharray:none;stroke-opacity:1"
     inkscape:export-xdpi="300.052"
     inkscape:export-ydpi="300.052" />
  <path
     style="fill:none;fill-rule:evenodd;stroke:#000000;stroke-width:0.5;stroke-linecap:butt;stroke-linejoin:miter;stroke-miterlimit:4;stroke-dasharray:none;stroke-opacity:1"
     d="m 13.632354,14.40568 0,-0.950878"
     id="path4202"
     inkscape:connector-curvature="0"
     inkscape:export-xdpi="300.052"
     inkscape:export-ydpi="300.052" />
  <path
     inkscape:connector-curvature="0"
     id="path4204"
     d="m 15.632354,14.40568 0,-0.950878"
     style="fill:none;fill-rule:evenodd;stroke:#000000;stroke-width:0.5;stroke-linecap:butt;stroke-linejoin:miter;stroke-miterlimit:4;stroke-dasharray:none;stroke-opacity:1"
     inkscape:export-xdpi="300.052"
     inkscape:export-ydpi="300.052" />
  <path
     style="fill:none;fill-rule:evenodd;stroke:#000000;stroke-width:0.5;stroke-linecap:butt;stroke-linejoin:miter;stroke-miterlimit:4;stroke-dasharray:none;stroke-opacity:1"
     d="m 17.632354,14.40568 0,-0.950878"
     id="path4206"
     inkscape:connector-curvature="0"
     inkscape:export-xdpi="300.052"
     inkscape:export-ydpi="300.052" />
  <path
     inkscape:connector-curvature="0"
     id="path4208"
     d="m 19.632354,14.40568 0,-0.950878"
     style="fill:none;fill-rule:evenodd;stroke:#000000;stroke-width:0.5;stroke-linecap:butt;stroke-linejoin:miter;stroke-miterlimit:4;stroke-dasharray:none;stroke-opacity:1"
     inkscape:export-xdpi="300.052"
     inkscape:export-ydpi="300.052" />
  <path
     style="fill:none;fill-rule:evenodd;stroke:#000000;stroke-width:0.5;stroke-linecap:butt;stroke-linejoin:miter;stroke-miterlimit:4;stroke-dasharray:none;stroke-opacity:1"
     d="m 21.632354,14.40568 0,-0.950878"
     id="path4210"
     inkscape:connector-curvature="0"
     inkscape:export-xdpi="300.052"
     inkscape:export-ydpi="300.052" />
  <path
     inkscape:connector-curvature="0"
     id="path4212"
     d="m 23.632354,14.40568 0,-0.950878"
     style="fill:none;fill-rule:evenodd;stroke:#000000;stroke-width:0.5;stroke-linecap:butt;stroke-linejoin:miter;stroke-miterlimit:4;stroke-dasharray:none;stroke-opacity:1"
     inkscape:export-xdpi="300.052"
     inkscape:export-ydpi="300.052" />
  <path
     style="fill:none;fill-rule:evenodd;stroke:#000000;stroke-width:0.5;stroke-linecap:butt;stroke-linejoin:miter;stroke-miterlimit:4;stroke-dasharray:none;stroke-opacity:1"
     d="m 25.632354,14.40568 0,-0.950878"
     id="path4214"
     inkscape:connector-curvature="0"
     inkscape:export-xdpi="300.052"
     inkscape:export-ydpi="300.052" />
  <path
     inkscape:connector-curvature="0"
     id="path4216"
     d="m 27.632354,14.40568 0,-0.950878"
     style="fill:none;fill-rule:evenodd;stroke:#000000;stroke-width:0.5;stroke-linecap:butt;stroke-linejoin:miter;stroke-miterlimit:4;stroke-dasharray:none;stroke-opacity:1"
     inkscape:export-xdpi="300.052"
     inkscape:export-ydpi="300.052" />
  <path
     style="fill:none;fill-rule:evenodd;stroke:#000000;stroke-width:0.5;stroke-linecap:butt;stroke-linejoin:miter;stroke-miterlimit:4;stroke-dasharray:none;stroke-opacity:1"
     d="m 3.6513718,26.218661 0.3874828,0 0.3874828,0 0.3874828,0 0.3874829,-7.150603 0.3874828,7.150603 0.3874828,0 0.3874828,0 0.3874828,0 0.3874828,-4.906531 0.3874829,4.906531 0.3874828,0 0.3874828,0 0.3874828,0 0.3874828,-3.080845 0.3874828,3.080845 0.3874828,0 0.3874832,0 0.387482,0 0.387483,0 0.387483,0 0.387483,0 0.387483,0 0.387483,0 0.387482,0 0.387483,0 0.387483,0 0.387483,0 0.387483,0 0.387482,0 0.387483,0 0.387483,0 0.387483,0 0.387483,0 0.387483,0 0.387482,0 0.387483,0 0.387483,-6.504006 0.387483,6.504006 0.387483,0 0.387482,0 0.387483,0 0.387483,0 0.387483,0 0.387483,0 0.387483,0 0.387482,-4.069758 0.387483,4.069758 0.387483,0 0.387483,0 0.387483,0 0.387482,0 0.387483,0 0.387483,0 0.387483,0 0.387483,-1.977826 0.387482,1.977826 0.387483,0 0.387483,0 0.387483,0 0.387483,0 0.387483,0 0.387482,0 0.387483,0 0.387483,0"
     id="path6012"
     inkscape:connector-curvature="0"
     sodipodi:nodetypes="ccccccccccccccccccccccccccccccccccccccccccccccccccccccccccccccccc"
     inkscape:export-xdpi="300.052"
     inkscape:export-ydpi="300.052" />
  <path
     sodipodi:nodetypes="ccccccccccccccccccccccccccccccccccccccccccccccccccccccccccccccccc"
     inkscape:connector-curvature="0"
     id="path6014"
     d="m 28.450272,11.346928 -0.387483,0 -0.387483,0 -0.387482,0 -0.387483,-7.1506031 -0.387483,7.1506031 -0.387483,0 -0.387483,0 -0.387483,0 -0.387482,-4.9065309 -0.387483,4.9065309 -0.387483,0 -0.387483,0 -0.387483,0 -0.387482,-3.080845 -0.387483,3.080845 -0.387483,0 -0.387483,0 -0.387482,0 -0.387483,0 -0.387483,0 -0.387483,0 -0.387483,0 -0.387483,0 -0.387482,0 -0.387483,0 -0.387483,0 -0.387483,0 -0.387483,0 -0.387482,0 -0.387483,0 -0.387483,0 -0.387483,0 -0.387483,0 -0.387483,0 -0.387482,0 -0.387483,0 -0.387483,-6.504006 -0.387483,6.504006 -0.387483,0 -0.387482,0 -0.387483,0 -0.387483,0 -0.387483,0 -0.387483,0 -0.387483,0 -0.387482,-4.0697581 -0.387483,4.0697581 -0.3874832,0 -0.387483,0 -0.387483,0 -0.387482,0 -0.387483,0 -0.387483,0 -0.387483,0 -0.387483,-1.9778264 -0.387482,1.9778264 -0.387483,0 -0.387483,0 -0.387483,0 -0.387483,0 -0.387483,0 -0.387482,0 -0.387483,0 -0.387483,0"
     style="fill:none;fill-rule:evenodd;stroke:#000000;stroke-width:0.5;stroke-linecap:butt;stroke-linejoin:miter;stroke-miterlimit:4;stroke-dasharray:none;stroke-opacity:1"
     inkscape:export-xdpi="300.052"
     inkscape:export-ydpi="300.052" />
  <text
     xml:space="preserve"
     style="font-style:normal;font-weight:normal;font-size:40.45303726px;line-height:25.28314972px;font-family:'Bitstream Vera Sans';letter-spacing:0px;word-spacing:0px;fill:#ff0000;fill-opacity:1;stroke:none;stroke-width:1.01132596px;stroke-linecap:butt;stroke-linejoin:miter;stroke-opacity:1"
     x="5.3113995"
     y="31.081705"
     id="text989"
     inkscape:export-xdpi="300.052"
     inkscape:export-ydpi="300.052"><tspan
       sodipodi:role="line"
       id="tspan987"
       x="5.3113995"
       y="31.081705"
       style="fill:#ff0000;fill-opacity:1;stroke-width:1.01132596px">?</tspan></text>
</svg>
