<?xml version="1.0" encoding="UTF-8" standalone="no"?>
<svg
   xmlns:dc="http://purl.org/dc/elements/1.1/"
   xmlns:cc="http://creativecommons.org/ns#"
   xmlns:rdf="http://www.w3.org/1999/02/22-rdf-syntax-ns#"
   xmlns:svg="http://www.w3.org/2000/svg"
   xmlns="http://www.w3.org/2000/svg"
   xmlns:sodipodi="http://sodipodi.sourceforge.net/DTD/sodipodi-0.dtd"
   xmlns:inkscape="http://www.inkscape.org/namespaces/inkscape"
   width="8.5019445mm"
   height="8.5019445mm"
   viewBox="0 0 8.5019445 8.5019445"
   version="1.1"
   id="svg3272"
   inkscape:version="1.0.2 (e86c870879, 2021-01-15)"
   sodipodi:docname="zoom-lens.svg">
  <defs
     id="defs3266" />
  <sodipodi:namedview
     id="base"
     pagecolor="#ffffff"
     bordercolor="#666666"
     borderopacity="1.0"
     inkscape:pageopacity="0.0"
     inkscape:pageshadow="2"
     inkscape:zoom="5.6879899"
     inkscape:cx="36.026786"
     inkscape:cy="32.678571"
     inkscape:document-units="mm"
     inkscape:current-layer="layer1"
     inkscape:document-rotation="0"
     showgrid="false"
     fit-margin-top="0"
     fit-margin-left="0"
     fit-margin-right="0"
     fit-margin-bottom="0" />
  <metadata
     id="metadata3269">
    <rdf:RDF>
      <cc:Work
         rdf:about="">
        <dc:format>image/svg+xml</dc:format>
        <dc:type
           rdf:resource="http://purl.org/dc/dcmitype/StillImage" />
        <dc:title></dc:title>
      </cc:Work>
    </rdf:RDF>
  </metadata>
  <g
     inkscape:label="Layer 1"
     inkscape:groupmode="layer"
     id="layer1"
     transform="translate(-72.856171,-101.58236)">
    <g
       inkscape:export-ydpi="95.601601"
       inkscape:export-xdpi="95.601601"
       id="g2113"
       transform="matrix(0.26458333,0,0,0.26458333,23.303649,56.52839)">
      <rect
         inkscape:export-ydpi="95.601578"
         inkscape:export-xdpi="95.601578"
         y="170.3494"
         x="187.35179"
         height="32"
         width="32"
         id="rect1684"
         style="opacity:1;fill:#000000;fill-opacity:1;fill-rule:nonzero;stroke:#fff0b0;stroke-width:0.133333;stroke-linecap:round;stroke-linejoin:round;stroke-miterlimit:4;stroke-dasharray:none;stroke-dashoffset:0;stroke-opacity:1;paint-order:markers stroke fill" />
      <ellipse
         style="opacity:1;fill:#000000;fill-opacity:1;fill-rule:nonzero;stroke:#f7fc00;stroke-width:4;stroke-linecap:round;stroke-linejoin:bevel;stroke-miterlimit:4;stroke-dasharray:none;stroke-dashoffset:0;stroke-opacity:1;paint-order:markers stroke fill"
         id="path2056"
         cx="202.35321"
         cy="184.696"
         rx="8.8239269"
         ry="8.8902721" />
      <path
         style="fill:none;fill-rule:evenodd;stroke:#f7fc00;stroke-width:4.5;stroke-linecap:butt;stroke-linejoin:miter;stroke-miterlimit:4;stroke-dasharray:none;stroke-opacity:1"
         d="m 208.26286,191.86091 6.89007,8.49293"
         id="path2088"
         inkscape:connector-curvature="0" />
      <path
         id="path1268-6"
         style="fill:none;fill-rule:evenodd;stroke:#f7fc00;stroke-width:3;stroke-linecap:butt;stroke-linejoin:miter;stroke-miterlimit:4;stroke-dasharray:none;stroke-opacity:1"
         d="m 208.7412,184.696 h -12.77598 m 6.38799,-6.38799 v 12.77598"
         inkscape:connector-curvature="0" />
    </g>
  </g>
</svg>
